<?xml version="1.0" encoding="UTF-8"?>
<!DOCTYPE svg PUBLIC '-//W3C//DTD SVG 1.0//EN'
          'http://www.w3.org/TR/2001/REC-SVG-20010904/DTD/svg10.dtd'>
<svg xmlns:xlink="http://www.w3.org/1999/xlink" style="fill-opacity:1; color-rendering:auto; color-interpolation:auto; text-rendering:auto; stroke:black; stroke-linecap:square; stroke-miterlimit:10; shape-rendering:auto; stroke-opacity:1; fill:black; stroke-dasharray:none; font-weight:normal; stroke-width:1; font-family:'Dialog'; font-style:normal; stroke-linejoin:miter; font-size:12px; stroke-dashoffset:0; image-rendering:auto;" width="1364" height="649" xmlns="http://www.w3.org/2000/svg"
><!--Generated by Scilab with Batik SVG Generator--><defs id="genericDefs"
  /><g
  ><defs id="defs1"
    ><clipPath clipPathUnits="userSpaceOnUse" id="clipPath1"
      ><path d="M170.4898 81.1209 L1193.5103 81.1209 L1193.5103 491.4798 L170.4898 491.4798 L170.4898 81.1209 Z"
      /></clipPath
      ><font horiz-adv-x="60.0" id="font1"
      ><font-face ascent="92.822266" descent="23.583984" units-per-em="100" style="font-style:normal; font-family:sans-serif; font-weight:normal;"
        /><missing-glyph horiz-adv-x="60.0" d="M4.9844 -17.6719 L4.9844 70.5156 L54.9844 70.5156 L54.9844 -17.6719 L4.9844 -17.6719 ZM10.5938 -12.1094 L49.4219 -12.1094 L49.4219 64.8906 L10.5938 64.8906 L10.5938 -12.1094 Z"
        /><glyph unicode="0" horiz-adv-x="64.0" d="M31.7812 66.4062 Q24.1719 66.4062 20.3359 58.9141 Q16.5 51.4219 16.5 36.375 Q16.5 21.3906 20.3359 13.8906 Q24.1719 6.3906 31.7812 6.3906 Q39.4531 6.3906 43.2891 13.8906 Q47.125 21.3906 47.125 36.375 Q47.125 51.4219 43.2891 58.9141 Q39.4531 66.4062 31.7812 66.4062 ZM31.7812 74.2188 Q44.0469 74.2188 50.5156 64.5234 Q56.9844 54.8281 56.9844 36.375 Q56.9844 17.9688 50.5156 8.2734 Q44.0469 -1.4219 31.7812 -1.4219 Q19.5312 -1.4219 13.0625 8.2734 Q6.5938 17.9688 6.5938 36.375 Q6.5938 54.8281 13.0625 64.5234 Q19.5312 74.2188 31.7812 74.2188 Z"
        /><glyph unicode="1" horiz-adv-x="64.0" d="M12.4062 8.2969 L28.5156 8.2969 L28.5156 63.9219 L10.9844 60.4062 L10.9844 69.3906 L28.4219 72.9062 L38.2812 72.9062 L38.2812 8.2969 L54.3906 8.2969 L54.3906 0 L12.4062 0 L12.4062 8.2969 Z"
        /><glyph unicode="2" horiz-adv-x="64.0" d="M19.1875 8.2969 L53.6094 8.2969 L53.6094 0 L7.3281 0 L7.3281 8.2969 Q12.9375 14.1094 22.6328 23.8984 Q32.3281 33.6875 34.8125 36.5312 Q39.5469 41.8438 41.4297 45.5312 Q43.3125 49.2188 43.3125 52.7812 Q43.3125 58.5938 39.2344 62.2578 Q35.1562 65.9219 28.6094 65.9219 Q23.9688 65.9219 18.8203 64.3125 Q13.6719 62.7031 7.8125 59.4219 L7.8125 69.3906 Q13.7656 71.7812 18.9453 73 Q24.125 74.2188 28.4219 74.2188 Q39.75 74.2188 46.4844 68.5547 Q53.2188 62.8906 53.2188 53.4219 Q53.2188 48.9219 51.5391 44.8984 Q49.8594 40.875 45.4062 35.4062 Q44.1875 33.9844 37.6484 27.2188 Q31.1094 20.4531 19.1875 8.2969 Z"
        /><glyph unicode="." horiz-adv-x="32.0" d="M10.6875 12.4062 L21 12.4062 L21 0 L10.6875 0 L10.6875 12.4062 Z"
        /><glyph unicode="4" horiz-adv-x="64.0" d="M37.7969 64.3125 L12.8906 25.3906 L37.7969 25.3906 L37.7969 64.3125 ZM35.2031 72.9062 L47.6094 72.9062 L47.6094 25.3906 L58.0156 25.3906 L58.0156 17.1875 L47.6094 17.1875 L47.6094 0 L37.7969 0 L37.7969 17.1875 L4.8906 17.1875 L4.8906 26.7031 L35.2031 72.9062 Z"
        /><glyph unicode="6" horiz-adv-x="64.0" d="M33.0156 40.375 Q26.375 40.375 22.4922 35.8359 Q18.6094 31.2969 18.6094 23.3906 Q18.6094 15.5312 22.4922 10.9609 Q26.375 6.3906 33.0156 6.3906 Q39.6562 6.3906 43.5312 10.9609 Q47.4062 15.5312 47.4062 23.3906 Q47.4062 31.2969 43.5312 35.8359 Q39.6562 40.375 33.0156 40.375 ZM52.5938 71.2969 L52.5938 62.3125 Q48.875 64.0625 45.0938 64.9922 Q41.3125 65.9219 37.5938 65.9219 Q27.8281 65.9219 22.6797 59.3281 Q17.5312 52.7344 16.7969 39.4062 Q19.6719 43.6562 24.0234 45.9219 Q28.375 48.1875 33.5938 48.1875 Q44.5781 48.1875 50.9531 41.5234 Q57.3281 34.8594 57.3281 23.3906 Q57.3281 12.1562 50.6875 5.3672 Q44.0469 -1.4219 33.0156 -1.4219 Q20.3594 -1.4219 13.6719 8.2734 Q6.9844 17.9688 6.9844 36.375 Q6.9844 53.6562 15.1875 63.9375 Q23.3906 74.2188 37.2031 74.2188 Q40.9219 74.2188 44.7031 73.4844 Q48.4844 72.75 52.5938 71.2969 Z"
        /><glyph unicode="8" horiz-adv-x="64.0" d="M31.7812 34.625 Q24.75 34.625 20.7266 30.8594 Q16.7031 27.0938 16.7031 20.5156 Q16.7031 13.9219 20.7266 10.1562 Q24.75 6.3906 31.7812 6.3906 Q38.8125 6.3906 42.8672 10.1797 Q46.9219 13.9688 46.9219 20.5156 Q46.9219 27.0938 42.8984 30.8594 Q38.875 34.625 31.7812 34.625 ZM21.9219 38.8125 Q15.5781 40.375 12.0391 44.7266 Q8.5 49.0781 8.5 55.3281 Q8.5 64.0625 14.7266 69.1406 Q20.9531 74.2188 31.7812 74.2188 Q42.6719 74.2188 48.875 69.1406 Q55.0781 64.0625 55.0781 55.3281 Q55.0781 49.0781 51.5391 44.7266 Q48 40.375 41.7031 38.8125 Q48.8281 37.1562 52.8047 32.3203 Q56.7812 27.4844 56.7812 20.5156 Q56.7812 9.9062 50.3125 4.2422 Q43.8438 -1.4219 31.7812 -1.4219 Q19.7344 -1.4219 13.2578 4.2422 Q6.7812 9.9062 6.7812 20.5156 Q6.7812 27.4844 10.7891 32.3203 Q14.7969 37.1562 21.9219 38.8125 ZM18.3125 54.3906 Q18.3125 48.7344 21.8516 45.5625 Q25.3906 42.3906 31.7812 42.3906 Q38.1406 42.3906 41.7266 45.5625 Q45.3125 48.7344 45.3125 54.3906 Q45.3125 60.0625 41.7266 63.2344 Q38.1406 66.4062 31.7812 66.4062 Q25.3906 66.4062 21.8516 63.2344 Q18.3125 60.0625 18.3125 54.3906 Z"
        /><glyph unicode="3" horiz-adv-x="64.0" d="M40.5781 39.3125 Q47.6562 37.7969 51.6328 33.0078 Q55.6094 28.2188 55.6094 21.1875 Q55.6094 10.4062 48.1875 4.4922 Q40.7656 -1.4219 27.0938 -1.4219 Q22.5156 -1.4219 17.6562 -0.5156 Q12.7969 0.3906 7.625 2.2031 L7.625 11.7188 Q11.7188 9.3281 16.6016 8.1094 Q21.4844 6.8906 26.8125 6.8906 Q36.0781 6.8906 40.9375 10.5469 Q45.7969 14.2031 45.7969 21.1875 Q45.7969 27.6406 41.2812 31.2734 Q36.7656 34.9062 28.7188 34.9062 L20.2188 34.9062 L20.2188 43.0156 L29.1094 43.0156 Q36.375 43.0156 40.2344 45.9219 Q44.0938 48.8281 44.0938 54.2969 Q44.0938 59.9062 40.1172 62.9141 Q36.1406 65.9219 28.7188 65.9219 Q24.6562 65.9219 20.0156 65.0391 Q15.375 64.1562 9.8125 62.3125 L9.8125 71.0938 Q15.4375 72.6562 20.3438 73.4375 Q25.25 74.2188 29.5938 74.2188 Q40.8281 74.2188 47.3672 69.1172 Q53.9062 64.0156 53.9062 55.3281 Q53.9062 49.2656 50.4375 45.0938 Q46.9688 40.9219 40.5781 39.3125 Z"
        /><glyph unicode="5" horiz-adv-x="64.0" d="M10.7969 72.9062 L49.5156 72.9062 L49.5156 64.5938 L19.8281 64.5938 L19.8281 46.7344 Q21.9688 47.4688 24.1172 47.8281 Q26.2656 48.1875 28.4219 48.1875 Q40.625 48.1875 47.7578 41.5 Q54.8906 34.8125 54.8906 23.3906 Q54.8906 11.625 47.5625 5.1016 Q40.2344 -1.4219 26.9062 -1.4219 Q22.3125 -1.4219 17.5547 -0.6406 Q12.7969 0.1406 7.7188 1.7031 L7.7188 11.625 Q12.1094 9.2344 16.7969 8.0625 Q21.4844 6.8906 26.7031 6.8906 Q35.1562 6.8906 40.0859 11.3281 Q45.0156 15.7656 45.0156 23.3906 Q45.0156 31 40.0859 35.4453 Q35.1562 39.8906 26.7031 39.8906 Q22.75 39.8906 18.8203 39.0156 Q14.8906 38.1406 10.7969 36.2812 L10.7969 72.9062 Z"
        /><glyph unicode="7" horiz-adv-x="64.0" d="M8.2031 72.9062 L55.0781 72.9062 L55.0781 68.7031 L28.6094 0 L18.3125 0 L43.2188 64.5938 L8.2031 64.5938 L8.2031 72.9062 Z"
        /><glyph unicode="9" horiz-adv-x="64.0" d="M10.9844 1.5156 L10.9844 10.5 Q14.7031 8.7344 18.5078 7.8125 Q22.3125 6.8906 25.9844 6.8906 Q35.75 6.8906 40.8984 13.4531 Q46.0469 20.0156 46.7812 33.4062 Q43.9531 29.2031 39.6016 26.9531 Q35.25 24.7031 29.9844 24.7031 Q19.0469 24.7031 12.6719 31.3203 Q6.2969 37.9375 6.2969 49.4219 Q6.2969 60.6406 12.9375 67.4297 Q19.5781 74.2188 30.6094 74.2188 Q43.2656 74.2188 49.9297 64.5234 Q56.5938 54.8281 56.5938 36.375 Q56.5938 19.1406 48.4141 8.8594 Q40.2344 -1.4219 26.4219 -1.4219 Q22.7031 -1.4219 18.8984 -0.6875 Q15.0938 0.0469 10.9844 1.5156 ZM30.6094 32.4219 Q37.25 32.4219 41.1328 36.9609 Q45.0156 41.5 45.0156 49.4219 Q45.0156 57.2812 41.1328 61.8438 Q37.25 66.4062 30.6094 66.4062 Q23.9688 66.4062 20.0938 61.8438 Q16.2188 57.2812 16.2188 49.4219 Q16.2188 41.5 20.0938 36.9609 Q23.9688 32.4219 30.6094 32.4219 Z"
      /></font
    ></defs
    ><g style="fill:red; text-rendering:optimizeLegibility; stroke:red;"
    ><rect x="0" width="1364" height="649" y="0" style="stroke:none;"
    /></g
    ><g style="stroke-linecap:butt; fill:white; text-rendering:geometricPrecision; stroke-linejoin:bevel; shape-rendering:crispEdges; stroke:white; stroke-width:0;"
    ><path style="stroke:none;" d="M1193.5 81.125 L1193.5 491.4757 L170.5 81.125 Z"
      /><path style="stroke:none;" d="M1193.5 491.4757 L170.5 491.4757 L170.5 81.125 Z"
      /><path style="stroke:none;" d="M1193.5 81.125 L1193.5 491.4757 L1193.5 491.4757 Z"
      /><path style="stroke:none;" d="M170.5 81.125 L170.5 491.4757 L170.5 491.4757 Z"
      /><path style="stroke:none;" d="M1193.5 81.125 L1193.5 491.4757 L170.5 81.125 Z"
      /><path style="stroke:none;" d="M1193.5 491.4757 L170.5 491.4757 L170.5 81.125 Z"
      /><path style="stroke:none;" d="M1193.5 81.125 L1193.5 81.125 L1193.5 491.4757 Z"
      /><path style="stroke:none;" d="M170.5 81.125 L170.5 81.125 L170.5 491.4757 Z"
      /><path style="stroke:none;" d="M1193.5 81.125 L170.5 81.125 L1193.5 81.125 Z"
      /><path style="stroke:none;" d="M170.5 81.125 L170.5 81.125 L1193.5 81.125 Z"
      /><path style="stroke:none;" d="M1193.5 491.4757 L170.5 491.4757 L1193.5 491.4757 Z"
      /><path style="stroke:none;" d="M170.5 491.4757 L170.5 491.4757 L1193.5 491.4757 Z"
      /><path d="M170.5771 491.4757 L1193.3435 491.4757 L1193.3435 282.5595 Z" style="fill:black; stroke:none;"
      /><path d="M1142.2052 282.5595 L1091.0669 282.5595 L1091.0669 298.1564 Z" style="fill:black; stroke:none;"
      /><path d="M1193.3435 282.5595 L1142.2052 282.5595 L1091.0669 298.1564 Z" style="fill:black; stroke:none;"
      /><path d="M170.5771 491.4757 L1193.3435 282.5595 L1091.0669 298.1564 Z" style="fill:black; stroke:none;"
      /><path d="M170.5771 491.4757 L1091.0669 298.1564 L1039.9286 298.1564 Z" style="fill:black; stroke:none;"
      /><path d="M1039.9286 298.1564 L1039.9286 273.5297 L988.7903 273.5297 Z" style="fill:black; stroke:none;"
      /><path d="M1039.9286 298.1564 L988.7903 273.5297 L988.7903 294.4624 Z" style="fill:black; stroke:none;"
      /><path d="M1039.9286 298.1564 L988.7903 294.4624 L937.6519 294.4624 Z" style="fill:black; stroke:none;"
      /><path d="M170.5771 491.4757 L1039.9286 298.1564 L937.6519 294.4624 Z" style="fill:black; stroke:none;"
      /><path d="M937.6519 294.4624 L937.6519 271.8879 L886.5136 271.8879 Z" style="fill:black; stroke:none;"
      /><path d="M937.6519 294.4624 L886.5136 271.8879 L886.5136 288.3057 Z" style="fill:black; stroke:none;"
      /><path d="M937.6519 294.4624 L886.5136 288.3057 L835.3753 288.3057 Z" style="fill:black; stroke:none;"
      /><path d="M170.5771 491.4757 L937.6519 294.4624 L835.3753 288.3057 Z" style="fill:black; stroke:none;"
      /><path d="M170.5771 491.4757 L835.3753 288.3057 L835.3753 280.5073 Z" style="fill:black; stroke:none;"
      /><path d="M835.3753 280.5073 L784.2369 280.5073 L784.2369 292.4102 Z" style="fill:black; stroke:none;"
      /><path d="M170.5771 491.4757 L835.3753 280.5073 L784.2369 292.4102 Z" style="fill:black; stroke:none;"
      /><path d="M170.5771 491.4757 L784.2369 292.4102 L733.0986 292.4102 Z" style="fill:black; stroke:none;"
      /><path d="M170.5771 491.4757 L733.0986 292.4102 L733.0986 274.761 Z" style="fill:black; stroke:none;"
      /><path d="M733.0986 274.761 L681.9603 274.761 L681.9603 287.4848 Z" style="fill:black; stroke:none;"
      /><path d="M170.5771 491.4757 L733.0986 274.761 L681.9603 287.4848 Z" style="fill:black; stroke:none;"
      /><path d="M170.5771 491.4757 L681.9603 287.4848 L630.822 287.4848 Z" style="fill:black; stroke:none;"
      /><path d="M170.5771 491.4757 L630.822 287.4848 L630.822 273.5297 Z" style="fill:black; stroke:none;"
      /><path d="M630.822 273.5297 L579.6837 273.5297 L579.6837 283.3804 Z" style="fill:black; stroke:none;"
      /><path d="M170.5771 491.4757 L630.822 273.5297 L579.6837 283.3804 Z" style="fill:black; stroke:none;"
      /><path d="M579.6837 283.3804 L528.5453 283.3804 L528.5453 286.2535 Z" style="fill:black; stroke:none;"
      /><path d="M170.5771 491.4757 L579.6837 283.3804 L528.5453 286.2535 Z" style="fill:black; stroke:none;"
      /><path d="M528.5453 286.2535 L477.407 286.2535 L477.407 297.3355 Z" style="fill:black; stroke:none;"
      /><path d="M170.5771 491.4757 L528.5453 286.2535 L477.407 297.3355 Z" style="fill:black; stroke:none;"
      /><path d="M170.5771 491.4757 L477.407 297.3355 L426.2687 297.3355 Z" style="fill:black; stroke:none;"
      /><path d="M170.5771 491.4757 L426.2687 297.3355 L426.2687 278.455 Z" style="fill:black; stroke:none;"
      /><path d="M426.2687 278.455 L375.1304 278.455 L375.1304 299.7982 Z" style="fill:black; stroke:none;"
      /><path d="M170.5771 491.4757 L426.2687 278.455 L375.1304 299.7982 Z" style="fill:black; stroke:none;"
      /><path d="M170.5771 491.4757 L375.1304 299.7982 L323.9921 299.7982 Z" style="fill:black; stroke:none;"
      /><path d="M170.5771 491.4757 L323.9921 299.7982 L323.9921 275.9924 Z" style="fill:black; stroke:none;"
      /><path d="M323.9921 275.9924 L272.8537 275.9924 L272.8537 292.4102 Z" style="fill:black; stroke:none;"
      /><path d="M170.5771 491.4757 L323.9921 275.9924 L272.8537 292.4102 Z" style="fill:black; stroke:none;"
      /><path d="M272.8537 292.4102 L221.7154 292.4102 L221.7154 311.2906 Z" style="fill:black; stroke:none;"
      /><path d="M170.5771 491.4757 L272.8537 292.4102 L221.7154 311.2906 Z" style="fill:black; stroke:none;"
      /><path d="M170.5771 491.4757 L221.7154 311.2906 L170.5771 311.2906 Z" style="fill:black; stroke:none;"
    /></g
    ><g style="fill:red; text-rendering:geometricPrecision; shape-rendering:crispEdges; stroke-linecap:butt; stroke:red;"
    ><path d="M170.5771 491.4757 L170.5771 311.2906 L221.7154 311.2906 L221.7154 491.4757 L221.7154 292.4102 L272.8537 292.4102 L272.8537 491.4757 L272.8537 275.9924 L323.9921 275.9924 L323.9921 491.4757 L323.9921 299.7982 L375.1304 299.7982 L375.1304 491.4757 L375.1304 278.455 L426.2687 278.455 L426.2687 491.4757 L426.2687 297.3355 L477.407 297.3355 L477.407 491.4757 L477.407 286.2535 L528.5453 286.2535 L528.5453 491.4757 L528.5453 283.3804 L579.6837 283.3804 L579.6837 491.4757 L579.6837 273.5297 L630.822 273.5297 L630.822 491.4757 L630.822 287.4848 L681.9603 287.4848 L681.9603 491.4757 L681.9603 274.761 L733.0986 274.761 L733.0986 491.4757 L733.0986 292.4102 L784.2369 292.4102 L784.2369 491.4757 L784.2369 280.5073 L835.3753 280.5073 L835.3753 491.4757 L835.3753 288.3057 L886.5136 288.3057 L886.5136 491.4757 L886.5136 271.8879 L937.6519 271.8879 L937.6519 491.4757 L937.6519 294.4624 L988.7903 294.4624 L988.7903 491.4757 L988.7903 273.5297 L1039.9286 273.5297 L1039.9286 491.4757 L1039.9286 298.1564 L1091.0669 298.1564 L1091.0669 491.4757 L1091.0669 282.5595 L1142.2052 282.5595 L1142.2052 491.4757 L1142.2052 282.5595 L1193.3435 282.5595 L1193.3435 491.4757" style="fill:none; clip-path:url(#clipPath1);"
    /></g
    ><g transform="translate(166.5,500.4757)" style="font-size:10px; stroke-linecap:butt; text-rendering:geometricPrecision; font-family:sans-serif; stroke-linejoin:bevel; stroke-width:0;"
    ><text x="-0.6562" xml:space="preserve" y="9.2822" style="stroke:none;"
      >0</text
    ></g
    ><g transform="translate(1190,500.4757)" style="font-size:10px; stroke-linecap:butt; text-rendering:geometricPrecision; font-family:sans-serif; stroke-linejoin:bevel; stroke-width:0;"
    ><text x="-1.0938" xml:space="preserve" y="9.2822" style="stroke:none;"
      >1</text
    ></g
    ><g transform="translate(367.1,500.4757)" style="font-size:10px; stroke-linecap:butt; text-rendering:geometricPrecision; font-family:sans-serif; stroke-linejoin:bevel; stroke-width:0;"
    ><text x="-0.6562" xml:space="preserve" y="9.2822" style="stroke:none;"
      >0.2</text
    ></g
    ><g transform="translate(571.2,500.4757)" style="font-size:10px; stroke-linecap:butt; text-rendering:geometricPrecision; font-family:sans-serif; stroke-linejoin:bevel; stroke-width:0;"
    ><text x="-0.6562" xml:space="preserve" y="9.2822" style="stroke:none;"
      >0.4</text
    ></g
    ><g transform="translate(775.8,500.4757)" style="font-size:10px; stroke-linecap:butt; text-rendering:geometricPrecision; font-family:sans-serif; stroke-linejoin:bevel; stroke-width:0;"
    ><text x="-0.6562" xml:space="preserve" y="9.2822" style="stroke:none;"
      >0.6</text
    ></g
    ><g transform="translate(980.4,500.4757)" style="font-size:10px; stroke-linecap:butt; text-rendering:geometricPrecision; font-family:sans-serif; stroke-linejoin:bevel; stroke-width:0;"
    ><text x="-0.6562" xml:space="preserve" y="9.2822" style="stroke:none;"
      >0.8</text
    ></g
    ><g transform="translate(264.8,500.4757)" style="font-size:10px; stroke-linecap:butt; text-rendering:geometricPrecision; font-family:sans-serif; stroke-linejoin:bevel; stroke-width:0;"
    ><text x="-0.6562" xml:space="preserve" y="9.2822" style="stroke:none;"
      >0.1</text
    ></g
    ><g transform="translate(469.4,500.4757)" style="font-size:10px; stroke-linecap:butt; text-rendering:geometricPrecision; font-family:sans-serif; stroke-linejoin:bevel; stroke-width:0;"
    ><text x="-0.6562" xml:space="preserve" y="9.2822" style="stroke:none;"
      >0.3</text
    ></g
    ><g transform="translate(674,500.4757)" style="font-size:10px; stroke-linecap:butt; text-rendering:geometricPrecision; font-family:sans-serif; stroke-linejoin:bevel; stroke-width:0;"
    ><text x="-0.6562" xml:space="preserve" y="9.2822" style="stroke:none;"
      >0.5</text
    ></g
    ><g transform="translate(878.6,500.4757)" style="font-size:10px; stroke-linecap:butt; text-rendering:geometricPrecision; font-family:sans-serif; stroke-linejoin:bevel; stroke-width:0;"
    ><text x="-0.6562" xml:space="preserve" y="9.2822" style="stroke:none;"
      >0.7</text
    ></g
    ><g transform="translate(1083.2,500.4757)" style="font-size:10px; stroke-linecap:butt; text-rendering:geometricPrecision; font-family:sans-serif; stroke-linejoin:bevel; stroke-width:0;"
    ><text x="-0.6562" xml:space="preserve" y="9.2822" style="stroke:none;"
      >0.9</text
    ></g
    ><g transform="translate(210.65,500.4757)" style="font-size:10px; stroke-linecap:butt; text-rendering:geometricPrecision; font-family:sans-serif; stroke-linejoin:bevel; stroke-width:0;"
    ><text x="-0.6562" xml:space="preserve" y="9.2822" style="stroke:none;"
      >0.05</text
    ></g
    ><g transform="translate(312.95,500.4757)" style="font-size:10px; stroke-linecap:butt; text-rendering:geometricPrecision; font-family:sans-serif; stroke-linejoin:bevel; stroke-width:0;"
    ><text x="-0.6562" xml:space="preserve" y="9.2822" style="stroke:none;"
      >0.15</text
    ></g
    ><g transform="translate(415.25,500.4757)" style="font-size:10px; stroke-linecap:butt; text-rendering:geometricPrecision; font-family:sans-serif; stroke-linejoin:bevel; stroke-width:0;"
    ><text x="-0.6562" xml:space="preserve" y="9.2822" style="stroke:none;"
      >0.25</text
    ></g
    ><g transform="translate(517.55,500.4757)" style="font-size:10px; stroke-linecap:butt; text-rendering:geometricPrecision; font-family:sans-serif; stroke-linejoin:bevel; stroke-width:0;"
    ><text x="-0.6562" xml:space="preserve" y="9.2822" style="stroke:none;"
      >0.35</text
    ></g
    ><g transform="translate(619.85,500.4757)" style="font-size:10px; stroke-linecap:butt; text-rendering:geometricPrecision; font-family:sans-serif; stroke-linejoin:bevel; stroke-width:0;"
    ><text x="-0.6562" xml:space="preserve" y="9.2822" style="stroke:none;"
      >0.45</text
    ></g
    ><g transform="translate(722.15,500.4757)" style="font-size:10px; stroke-linecap:butt; text-rendering:geometricPrecision; font-family:sans-serif; stroke-linejoin:bevel; stroke-width:0;"
    ><text x="-0.6562" xml:space="preserve" y="9.2822" style="stroke:none;"
      >0.55</text
    ></g
    ><g transform="translate(824.45,500.4757)" style="font-size:10px; stroke-linecap:butt; text-rendering:geometricPrecision; font-family:sans-serif; stroke-linejoin:bevel; stroke-width:0;"
    ><text x="-0.6562" xml:space="preserve" y="9.2822" style="stroke:none;"
      >0.65</text
    ></g
    ><g transform="translate(926.75,500.4757)" style="font-size:10px; stroke-linecap:butt; text-rendering:geometricPrecision; font-family:sans-serif; stroke-linejoin:bevel; stroke-width:0;"
    ><text x="-0.6562" xml:space="preserve" y="9.2822" style="stroke:none;"
      >0.75</text
    ></g
    ><g transform="translate(1029.05,500.4757)" style="font-size:10px; stroke-linecap:butt; text-rendering:geometricPrecision; font-family:sans-serif; stroke-linejoin:bevel; stroke-width:0;"
    ><text x="-0.6562" xml:space="preserve" y="9.2822" style="stroke:none;"
      >0.85</text
    ></g
    ><g transform="translate(1131.35,500.4757)" style="font-size:10px; stroke-linecap:butt; text-rendering:geometricPrecision; font-family:sans-serif; stroke-linejoin:bevel; stroke-width:0;"
    ><text x="-0.6562" xml:space="preserve" y="9.2822" style="stroke:none;"
      >0.95</text
    ></g
    ><g style="text-rendering:geometricPrecision; font-size:10px; shape-rendering:crispEdges; font-family:sans-serif; stroke-linecap:butt;"
    ><path style="fill:none;" d="M170.5 491.4757 L170.5 497.4757"
      /><path style="fill:none;" d="M221.65 491.4757 L221.65 497.4757"
      /><path style="fill:none;" d="M272.8 491.4757 L272.8 497.4757"
      /><path style="fill:none;" d="M323.95 491.4757 L323.95 497.4757"
      /><path style="fill:none;" d="M375.1 491.4757 L375.1 497.4757"
      /><path style="fill:none;" d="M426.25 491.4757 L426.25 497.4757"
      /><path style="fill:none;" d="M477.4 491.4757 L477.4 497.4757"
      /><path style="fill:none;" d="M528.55 491.4757 L528.55 497.4757"
      /><path style="fill:none;" d="M579.7 491.4757 L579.7 497.4757"
      /><path style="fill:none;" d="M630.85 491.4757 L630.85 497.4757"
      /><path style="fill:none;" d="M682 491.4757 L682 497.4757"
      /><path style="fill:none;" d="M733.15 491.4757 L733.15 497.4757"
      /><path style="fill:none;" d="M784.3 491.4757 L784.3 497.4757"
      /><path style="fill:none;" d="M835.45 491.4757 L835.45 497.4757"
      /><path style="fill:none;" d="M886.6 491.4757 L886.6 497.4757"
      /><path style="fill:none;" d="M937.75 491.4757 L937.75 497.4757"
      /><path style="fill:none;" d="M988.9 491.4757 L988.9 497.4757"
      /><path style="fill:none;" d="M1040.05 491.4757 L1040.05 497.4757"
      /><path style="fill:none;" d="M1091.2 491.4757 L1091.2 497.4757"
      /><path style="fill:none;" d="M1142.35 491.4757 L1142.35 497.4757"
      /><path style="fill:none;" d="M1193.5 491.4757 L1193.5 497.4757"
      /><path style="fill:none;" d="M170.5 491.4757 L170.5 494.4757"
      /><path style="fill:none;" d="M180.73 491.4757 L180.73 494.4757"
      /><path style="fill:none;" d="M190.96 491.4757 L190.96 494.4757"
      /><path style="fill:none;" d="M201.19 491.4757 L201.19 494.4757"
      /><path style="fill:none;" d="M211.42 491.4757 L211.42 494.4757"
      /><path style="fill:none;" d="M221.65 491.4757 L221.65 494.4757"
      /><path style="fill:none;" d="M231.88 491.4757 L231.88 494.4757"
      /><path style="fill:none;" d="M242.11 491.4757 L242.11 494.4757"
      /><path style="fill:none;" d="M252.34 491.4757 L252.34 494.4757"
      /><path style="fill:none;" d="M262.57 491.4757 L262.57 494.4757"
      /><path style="fill:none;" d="M272.8 491.4757 L272.8 494.4757"
      /><path style="fill:none;" d="M283.03 491.4757 L283.03 494.4757"
      /><path style="fill:none;" d="M293.26 491.4757 L293.26 494.4757"
      /><path style="fill:none;" d="M303.49 491.4757 L303.49 494.4757"
      /><path style="fill:none;" d="M313.72 491.4757 L313.72 494.4757"
      /><path style="fill:none;" d="M323.95 491.4757 L323.95 494.4757"
      /><path style="fill:none;" d="M334.18 491.4757 L334.18 494.4757"
      /><path style="fill:none;" d="M344.41 491.4757 L344.41 494.4757"
      /><path style="fill:none;" d="M354.64 491.4757 L354.64 494.4757"
      /><path style="fill:none;" d="M364.87 491.4757 L364.87 494.4757"
      /><path style="fill:none;" d="M375.1 491.4757 L375.1 494.4757"
      /><path style="fill:none;" d="M385.33 491.4757 L385.33 494.4757"
      /><path style="fill:none;" d="M395.56 491.4757 L395.56 494.4757"
      /><path style="fill:none;" d="M405.79 491.4757 L405.79 494.4757"
      /><path style="fill:none;" d="M416.02 491.4757 L416.02 494.4757"
      /><path style="fill:none;" d="M426.25 491.4757 L426.25 494.4757"
      /><path style="fill:none;" d="M436.48 491.4757 L436.48 494.4757"
      /><path style="fill:none;" d="M446.71 491.4757 L446.71 494.4757"
      /><path style="fill:none;" d="M456.94 491.4757 L456.94 494.4757"
      /><path style="fill:none;" d="M467.17 491.4757 L467.17 494.4757"
      /><path style="fill:none;" d="M477.4 491.4757 L477.4 494.4757"
      /><path style="fill:none;" d="M487.63 491.4757 L487.63 494.4757"
      /><path style="fill:none;" d="M497.86 491.4757 L497.86 494.4757"
      /><path style="fill:none;" d="M508.09 491.4757 L508.09 494.4757"
      /><path style="fill:none;" d="M518.32 491.4757 L518.32 494.4757"
      /><path style="fill:none;" d="M528.55 491.4757 L528.55 494.4757"
      /><path style="fill:none;" d="M538.78 491.4757 L538.78 494.4757"
      /><path style="fill:none;" d="M549.01 491.4757 L549.01 494.4757"
      /><path style="fill:none;" d="M559.24 491.4757 L559.24 494.4757"
      /><path style="fill:none;" d="M569.47 491.4757 L569.47 494.4757"
      /><path style="fill:none;" d="M579.7 491.4757 L579.7 494.4757"
      /><path style="fill:none;" d="M589.93 491.4757 L589.93 494.4757"
      /><path style="fill:none;" d="M600.16 491.4757 L600.16 494.4757"
      /><path style="fill:none;" d="M610.39 491.4757 L610.39 494.4757"
      /><path style="fill:none;" d="M620.62 491.4757 L620.62 494.4757"
      /><path style="fill:none;" d="M630.85 491.4757 L630.85 494.4757"
      /><path style="fill:none;" d="M641.08 491.4757 L641.08 494.4757"
      /><path style="fill:none;" d="M651.31 491.4757 L651.31 494.4757"
      /><path style="fill:none;" d="M661.54 491.4757 L661.54 494.4757"
      /><path style="fill:none;" d="M671.77 491.4757 L671.77 494.4757"
      /><path style="fill:none;" d="M682 491.4757 L682 494.4757"
      /><path style="fill:none;" d="M692.23 491.4757 L692.23 494.4757"
      /><path style="fill:none;" d="M702.46 491.4757 L702.46 494.4757"
      /><path style="fill:none;" d="M712.69 491.4757 L712.69 494.4757"
      /><path style="fill:none;" d="M722.92 491.4757 L722.92 494.4757"
      /><path style="fill:none;" d="M733.15 491.4757 L733.15 494.4757"
      /><path style="fill:none;" d="M743.38 491.4757 L743.38 494.4757"
      /><path style="fill:none;" d="M753.61 491.4757 L753.61 494.4757"
      /><path style="fill:none;" d="M763.84 491.4757 L763.84 494.4757"
      /><path style="fill:none;" d="M774.07 491.4757 L774.07 494.4757"
      /><path style="fill:none;" d="M784.3 491.4757 L784.3 494.4757"
      /><path style="fill:none;" d="M794.53 491.4757 L794.53 494.4757"
      /><path style="fill:none;" d="M804.76 491.4757 L804.76 494.4757"
      /><path style="fill:none;" d="M814.99 491.4757 L814.99 494.4757"
      /><path style="fill:none;" d="M825.22 491.4757 L825.22 494.4757"
      /><path style="fill:none;" d="M835.45 491.4757 L835.45 494.4757"
      /><path style="fill:none;" d="M845.68 491.4757 L845.68 494.4757"
      /><path style="fill:none;" d="M855.91 491.4757 L855.91 494.4757"
      /><path style="fill:none;" d="M866.14 491.4757 L866.14 494.4757"
      /><path style="fill:none;" d="M876.37 491.4757 L876.37 494.4757"
      /><path style="fill:none;" d="M886.6 491.4757 L886.6 494.4757"
      /><path style="fill:none;" d="M896.83 491.4757 L896.83 494.4757"
      /><path style="fill:none;" d="M907.06 491.4757 L907.06 494.4757"
      /><path style="fill:none;" d="M917.29 491.4757 L917.29 494.4757"
      /><path style="fill:none;" d="M927.52 491.4757 L927.52 494.4757"
      /><path style="fill:none;" d="M937.75 491.4757 L937.75 494.4757"
      /><path style="fill:none;" d="M947.98 491.4757 L947.98 494.4757"
      /><path style="fill:none;" d="M958.21 491.4757 L958.21 494.4757"
      /><path style="fill:none;" d="M968.44 491.4757 L968.44 494.4757"
      /><path style="fill:none;" d="M978.67 491.4757 L978.67 494.4757"
      /><path style="fill:none;" d="M988.9 491.4757 L988.9 494.4757"
      /><path style="fill:none;" d="M999.13 491.4757 L999.13 494.4757"
      /><path style="fill:none;" d="M1009.36 491.4757 L1009.36 494.4757"
      /><path style="fill:none;" d="M1019.59 491.4757 L1019.59 494.4757"
      /><path style="fill:none;" d="M1029.8199 491.4757 L1029.8199 494.4757"
      /><path style="fill:none;" d="M1040.05 491.4757 L1040.05 494.4757"
      /><path style="fill:none;" d="M1050.28 491.4757 L1050.28 494.4757"
      /><path style="fill:none;" d="M1060.51 491.4757 L1060.51 494.4757"
      /><path style="fill:none;" d="M1070.74 491.4757 L1070.74 494.4757"
      /><path style="fill:none;" d="M1080.97 491.4757 L1080.97 494.4757"
      /><path style="fill:none;" d="M1091.2 491.4757 L1091.2 494.4757"
      /><path style="fill:none;" d="M1101.4301 491.4757 L1101.4301 494.4757"
      /><path style="fill:none;" d="M1111.66 491.4757 L1111.66 494.4757"
      /><path style="fill:none;" d="M1121.89 491.4757 L1121.89 494.4757"
      /><path style="fill:none;" d="M1132.12 491.4757 L1132.12 494.4757"
      /><path style="fill:none;" d="M1142.35 491.4757 L1142.35 494.4757"
      /><path style="fill:none;" d="M1152.58 491.4757 L1152.58 494.4757"
      /><path style="fill:none;" d="M1162.8101 491.4757 L1162.8101 494.4757"
      /><path style="fill:none;" d="M1173.04 491.4757 L1173.04 494.4757"
      /><path style="fill:none;" d="M1183.27 491.4757 L1183.27 494.4757"
      /><path style="fill:none;" d="M1193.5 491.4757 L1193.5 494.4757"
      /><path style="fill:none;" d="M1193.5 491.4757 L170.5 491.4757"
      /><text x="-0.6562" y="9.2822" transform="translate(153.5,484.9757)" style="stroke-linejoin:bevel; shape-rendering:auto; stroke:none; stroke-width:0;" xml:space="preserve"
      >0</text
    ></g
    ><g transform="translate(154.5,74.625)" style="font-size:10px; stroke-linecap:butt; text-rendering:geometricPrecision; font-family:sans-serif; stroke-linejoin:bevel; stroke-width:0;"
    ><text x="-0.7344" xml:space="preserve" y="9.2822" style="stroke:none;"
      >2</text
    ></g
    ><g transform="translate(154.5,279.8004)" style="font-size:10px; stroke-linecap:butt; text-rendering:geometricPrecision; font-family:sans-serif; stroke-linejoin:bevel; stroke-width:0;"
    ><text x="-1.0938" xml:space="preserve" y="9.2822" style="stroke:none;"
      >1</text
    ></g
    ><g transform="translate(145.5,443.9407)" style="font-size:10px; stroke-linecap:butt; text-rendering:geometricPrecision; font-family:sans-serif; stroke-linejoin:bevel; stroke-width:0;"
    ><text x="-0.6562" xml:space="preserve" y="9.2822" style="stroke:none;"
      >0.2</text
    ></g
    ><g transform="translate(144.5,402.9056)" style="font-size:10px; stroke-linecap:butt; text-rendering:geometricPrecision; font-family:sans-serif; stroke-linejoin:bevel; stroke-width:0;"
    ><text x="-0.6562" xml:space="preserve" y="9.2822" style="stroke:none;"
      >0.4</text
    ></g
    ><g transform="translate(144.5,361.8705)" style="font-size:10px; stroke-linecap:butt; text-rendering:geometricPrecision; font-family:sans-serif; stroke-linejoin:bevel; stroke-width:0;"
    ><text x="-0.6562" xml:space="preserve" y="9.2822" style="stroke:none;"
      >0.6</text
    ></g
    ><g transform="translate(144.5,320.8354)" style="font-size:10px; stroke-linecap:butt; text-rendering:geometricPrecision; font-family:sans-serif; stroke-linejoin:bevel; stroke-width:0;"
    ><text x="-0.6562" xml:space="preserve" y="9.2822" style="stroke:none;"
      >0.8</text
    ></g
    ><g transform="translate(145.5,238.7653)" style="font-size:10px; stroke-linecap:butt; text-rendering:geometricPrecision; font-family:sans-serif; stroke-linejoin:bevel; stroke-width:0;"
    ><text x="-1.0938" xml:space="preserve" y="9.2822" style="stroke:none;"
      >1.2</text
    ></g
    ><g transform="translate(145.5,197.7302)" style="font-size:10px; stroke-linecap:butt; text-rendering:geometricPrecision; font-family:sans-serif; stroke-linejoin:bevel; stroke-width:0;"
    ><text x="-1.0938" xml:space="preserve" y="9.2822" style="stroke:none;"
      >1.4</text
    ></g
    ><g transform="translate(145.5,156.6951)" style="font-size:10px; stroke-linecap:butt; text-rendering:geometricPrecision; font-family:sans-serif; stroke-linejoin:bevel; stroke-width:0;"
    ><text x="-1.0938" xml:space="preserve" y="9.2822" style="stroke:none;"
      >1.6</text
    ></g
    ><g transform="translate(145.5,115.6601)" style="font-size:10px; stroke-linecap:butt; text-rendering:geometricPrecision; font-family:sans-serif; stroke-linejoin:bevel; stroke-width:0;"
    ><text x="-1.0938" xml:space="preserve" y="9.2822" style="stroke:none;"
      >1.8</text
    ></g
    ><g style="text-rendering:geometricPrecision; font-size:10px; shape-rendering:crispEdges; font-family:sans-serif; stroke-linecap:butt;"
    ><path style="fill:none;" d="M170.5 491.4757 L164.5 491.4757"
      /><path style="fill:none;" d="M170.5 450.4407 L164.5 450.4407"
      /><path style="fill:none;" d="M170.5 409.4056 L164.5 409.4056"
      /><path style="fill:none;" d="M170.5 368.3705 L164.5 368.3705"
      /><path style="fill:none;" d="M170.5 327.3354 L164.5 327.3354"
      /><path style="fill:none;" d="M170.5 286.3004 L164.5 286.3004"
      /><path style="fill:none;" d="M170.5 245.2653 L164.5 245.2653"
      /><path style="fill:none;" d="M170.5 204.2302 L164.5 204.2302"
      /><path style="fill:none;" d="M170.5 163.1952 L164.5 163.1952"
      /><path style="fill:none;" d="M170.5 122.1601 L164.5 122.1601"
      /><path style="fill:none;" d="M170.5 81.125 L164.5 81.125"
      /><path style="fill:none;" d="M170.5 491.4757 L167.5 491.4757"
      /><path style="fill:none;" d="M170.5 470.9582 L167.5 470.9582"
      /><path style="fill:none;" d="M170.5 450.4407 L167.5 450.4407"
      /><path style="fill:none;" d="M170.5 429.9231 L167.5 429.9231"
      /><path style="fill:none;" d="M170.5 409.4056 L167.5 409.4056"
      /><path style="fill:none;" d="M170.5 388.888 L167.5 388.888"
      /><path style="fill:none;" d="M170.5 368.3705 L167.5 368.3705"
      /><path style="fill:none;" d="M170.5 347.853 L167.5 347.853"
      /><path style="fill:none;" d="M170.5 327.3354 L167.5 327.3354"
      /><path style="fill:none;" d="M170.5 306.8179 L167.5 306.8179"
      /><path style="fill:none;" d="M170.5 286.3004 L167.5 286.3004"
      /><path style="fill:none;" d="M170.5 265.7828 L167.5 265.7828"
      /><path style="fill:none;" d="M170.5 245.2653 L167.5 245.2653"
      /><path style="fill:none;" d="M170.5 224.7477 L167.5 224.7477"
      /><path style="fill:none;" d="M170.5 204.2302 L167.5 204.2302"
      /><path style="fill:none;" d="M170.5 183.7127 L167.5 183.7127"
      /><path style="fill:none;" d="M170.5 163.1952 L167.5 163.1952"
      /><path style="fill:none;" d="M170.5 142.6776 L167.5 142.6776"
      /><path style="fill:none;" d="M170.5 122.1601 L167.5 122.1601"
      /><path style="fill:none;" d="M170.5 101.6425 L167.5 101.6425"
      /><path style="fill:none;" d="M170.5 81.125 L167.5 81.125"
      /><path style="fill:none;" d="M170.5 81.125 L170.5 491.4757"
    /></g
  ></g
></svg
>
