<?xml version="1.0" encoding="UTF-8" standalone="no"?>
<svg
   xmlns:dc="http://purl.org/dc/elements/1.1/"
   xmlns:cc="http://creativecommons.org/ns#"
   xmlns:rdf="http://www.w3.org/1999/02/22-rdf-syntax-ns#"
   xmlns:svg="http://www.w3.org/2000/svg"
   xmlns="http://www.w3.org/2000/svg"
   xmlns:xlink="http://www.w3.org/1999/xlink"
   xmlns:sodipodi="http://sodipodi.sourceforge.net/DTD/sodipodi-0.dtd"
   xmlns:inkscape="http://www.inkscape.org/namespaces/inkscape"
   width="510.7348pt"
   height="510.7348pt"
   viewBox="0 0 510.7348 510.7348"
   version="1.1"
   id="svg1655"
   sodipodi:docname="trigo-4.pdf_b.svg"
   inkscape:version="1.0.1 (3bc2e813f5, 2020-09-07)">
  <metadata
     id="metadata1659">
    <rdf:RDF>
      <cc:Work
         rdf:about="">
        <dc:format>image/svg+xml</dc:format>
        <dc:type
           rdf:resource="http://purl.org/dc/dcmitype/StillImage" />
        <dc:title></dc:title>
      </cc:Work>
    </rdf:RDF>
  </metadata>
  <sodipodi:namedview
     pagecolor="#ffffff"
     bordercolor="#666666"
     borderopacity="1"
     objecttolerance="10"
     gridtolerance="10"
     guidetolerance="10"
     inkscape:pageopacity="0"
     inkscape:pageshadow="2"
     inkscape:window-width="1918"
     inkscape:window-height="1044"
     id="namedview1657"
     showgrid="false"
     inkscape:zoom="0.84584015"
     inkscape:cx="100.4918"
     inkscape:cy="340.48987"
     inkscape:window-x="0"
     inkscape:window-y="34"
     inkscape:window-maximized="0"
     inkscape:current-layer="svg1655"
     inkscape:document-rotation="0" />
  <defs
     id="defs1162">
    <g
       id="g1148">
      <symbol
         overflow="visible"
         id="glyph0-0">
        <path
           style="stroke:none"
           d=""
           id="path1097" />
      </symbol>
      <symbol
         overflow="visible"
         id="glyph0-1">
        <path
           style="stroke:none"
           d="M 6.265625 -4.0625 C 6.265625 -5.5 5.734375 -8.28125 3.390625 -8.28125 C 1.0625 -8.28125 0.515625 -5.5 0.515625 -4.0625 C 0.515625 -2.5625 1.0625 0.171875 3.390625 0.171875 C 5.734375 0.171875 6.265625 -2.5625 6.265625 -4.0625 Z M 5.046875 -4.0625 C 5.046875 -3.078125 5.015625 -0.140625 3.390625 -0.140625 C 1.765625 -0.140625 1.75 -3.0625 1.75 -4.0625 C 1.75 -4.890625 1.765625 -7.953125 3.390625 -7.953125 C 5.015625 -7.953125 5.046875 -4.890625 5.046875 -4.0625 Z M 5.046875 -4.0625 "
           id="path1100" />
      </symbol>
      <symbol
         overflow="visible"
         id="glyph1-0">
        <path
           style="stroke:none"
           d=""
           id="path1103" />
      </symbol>
      <symbol
         overflow="visible"
         id="glyph1-1">
        <path
           style="stroke:none"
           d="M 2.890625 0.015625 L 2.890625 -0.234375 C 2.59375 -0.234375 2.328125 -0.3125 2.15625 -0.53125 C 1.984375 -0.71875 2.03125 -2.046875 2.046875 -3.0625 C 2.046875 -4.0625 2.09375 -5.625 2.09375 -5.625 C 1.796875 -5.421875 0.734375 -4.828125 0.4375 -4.703125 L 0.4375 -4.46875 L 1.296875 -4.734375 C 1.296875 -4.734375 1.3125 -3.453125 1.3125 -2.640625 C 1.3125 -1.8125 1.34375 -0.71875 1.1875 -0.53125 C 1 -0.3125 0.75 -0.234375 0.453125 -0.234375 L 0.453125 -0.015625 C 0.5625 -0.046875 1.53125 -0.078125 1.625 -0.078125 C 1.75 -0.078125 2.78125 -0.046875 2.890625 0.015625 Z M 2.890625 0.015625 "
           id="path1106" />
      </symbol>
      <symbol
         overflow="visible"
         id="glyph1-2">
        <path
           style="stroke:none"
           d="M 3.765625 -4.0625 C 3.796875 -5.359375 2.6875 -5.53125 1.96875 -5.53125 C 0.90625 -5.5 0.375 -5.125 0.3125 -4.484375 C 0.21875 -3.53125 1.15625 -3.609375 1.359375 -3.796875 C 0.9375 -4.09375 0.984375 -5.1875 1.9375 -5.28125 C 2.765625 -5.34375 3.015625 -4.640625 2.9375 -4.140625 C 2.84375 -3.53125 2.390625 -2.625 1.65625 -1.859375 L 0.390625 -0.53125 L 0.390625 0 L 3.546875 0 C 3.515625 -0.3125 3.75 -1.4375 3.75 -1.4375 L 3.5 -1.4375 C 3.4375 -1.1875 3.3125 -0.71875 2.875 -0.671875 C 2.34375 -0.640625 0.8125 -0.625 0.8125 -0.625 L 2.5 -2.078125 C 2.828125 -2.375 3.734375 -3.28125 3.765625 -4.0625 Z M 3.765625 -4.0625 "
           id="path1109" />
      </symbol>
      <symbol
         overflow="visible"
         id="glyph1-3">
        <path
           style="stroke:none"
           d="M 4.03125 -1.359375 C 4.109375 -2.640625 2.796875 -2.890625 2.171875 -2.90625 C 2.8125 -2.953125 3.828125 -3.4375 3.828125 -4.140625 C 3.828125 -5.171875 2.828125 -5.53125 2.09375 -5.53125 C 1.203125 -5.515625 0.546875 -5.125 0.5 -4.546875 C 0.4375 -3.75 1.1875 -3.921875 1.40625 -4.0625 C 1.03125 -4.53125 1.28125 -5.296875 2.109375 -5.265625 C 2.859375 -5.234375 3.046875 -4.59375 3.046875 -4.1875 C 3.046875 -3.4375 2.46875 -3.015625 1.46875 -3.09375 C 1.484375 -2.96875 1.5 -2.78125 1.4375 -2.65625 C 1.96875 -2.75 2.46875 -2.6875 2.75 -2.515625 C 3.09375 -2.28125 3.234375 -1.71875 3.1875 -1.3125 C 3.15625 -0.921875 2.9375 -0.140625 2.109375 -0.140625 C 1.328125 -0.140625 0.96875 -0.953125 1.3125 -1.390625 C 1.046875 -1.6875 0.34375 -1.625 0.390625 -0.90625 C 0.40625 -0.34375 1.046875 0.109375 2.09375 0.109375 C 2.90625 0.109375 3.984375 -0.375 4.03125 -1.359375 Z M 4.03125 -1.359375 "
           id="path1112" />
      </symbol>
      <symbol
         overflow="visible"
         id="glyph1-4">
        <path
           style="stroke:none"
           d="M 4.09375 -1.5625 C 4.140625 -2.296875 3.640625 -3.3125 2.578125 -3.359375 C 1.84375 -3.390625 1.328125 -2.96875 1.15625 -2.59375 C 1.078125 -3.359375 1.390625 -5.140625 2.390625 -5.234375 C 3.3125 -5.3125 3.421875 -4.484375 3.109375 -4.015625 C 3.109375 -4.015625 3.984375 -3.65625 4 -4.5 C 4 -5.015625 3.40625 -5.53125 2.390625 -5.484375 C 1.5 -5.4375 0.359375 -4.71875 0.359375 -2.390625 C 0.34375 -0.90625 1.140625 0.09375 2.15625 0.140625 C 3.21875 0.1875 4 -0.515625 4.09375 -1.5625 Z M 3.28125 -1.453125 C 3.203125 -0.765625 2.859375 -0.015625 2.171875 -0.046875 C 2.171875 -0.046875 1.15625 -0.140625 1.15625 -2.265625 C 1.296875 -2.609375 1.84375 -3.078125 2.34375 -3.046875 C 3.265625 -3 3.359375 -2.078125 3.28125 -1.453125 Z M 3.28125 -1.453125 "
           id="path1115" />
      </symbol>
      <symbol
         overflow="visible"
         id="glyph1-5">
        <path
           style="stroke:none"
           d="M 3.875 -1.78125 C 3.90625 -2.453125 3.734375 -2.8125 3.359375 -3.203125 C 2.6875 -3.953125 1.53125 -3.859375 0.921875 -3.390625 L 0.921875 -4.71875 L 3.25 -4.71875 C 3.25 -4.71875 3.296875 -4.953125 3.328125 -5.09375 C 3.359375 -5.234375 3.4375 -5.46875 3.4375 -5.46875 C 3.4375 -5.46875 2.5625 -5.390625 2 -5.390625 C 1.109375 -5.390625 0.515625 -5.453125 0.515625 -5.453125 C 0.515625 -5.453125 0.71875 -4.0625 0.546875 -2.90625 C 0.921875 -3.21875 1.65625 -3.515625 2.203125 -3.28125 C 2.6875 -3.078125 3.046875 -2.453125 3.0625 -1.703125 C 3.109375 -1.015625 2.734375 -0.125 1.890625 -0.109375 C 1.078125 -0.109375 0.796875 -0.96875 1.140625 -1.421875 C 1.046875 -1.578125 0.25 -1.8125 0.25 -0.875 C 0.234375 -0.234375 1.015625 0.109375 1.890625 0.109375 C 2.71875 0.109375 3.84375 -0.390625 3.875 -1.78125 Z M 3.875 -1.78125 "
           id="path1118" />
      </symbol>
      <symbol
         overflow="visible"
         id="glyph1-6">
        <path
           style="stroke:none"
           d="M 4.390625 -1.234375 L 4.390625 -1.546875 L 3.453125 -1.546875 L 3.453125 -5.53125 L 2.96875 -5.53125 L 0.28125 -1.515625 L 0.28125 -1.234375 L 2.734375 -1.234375 C 2.734375 -1.234375 2.78125 -0.703125 2.609375 -0.515625 C 2.4375 -0.296875 2.1875 -0.234375 1.890625 -0.234375 L 1.890625 -0.015625 C 1.984375 -0.046875 2.953125 -0.078125 3.0625 -0.078125 C 3.171875 -0.078125 4.203125 -0.046875 4.3125 0.015625 L 4.3125 -0.234375 C 4.015625 -0.234375 3.75 -0.328125 3.578125 -0.515625 C 3.40625 -0.71875 3.453125 -1.234375 3.453125 -1.234375 Z M 2.71875 -1.546875 L 0.71875 -1.546875 L 2.71875 -4.5625 Z M 2.71875 -1.546875 "
           id="path1121" />
      </symbol>
      <symbol
         overflow="visible"
         id="glyph2-0">
        <path
           style="stroke:none"
           d=""
           id="path1124" />
      </symbol>
      <symbol
         overflow="visible"
         id="glyph2-1">
        <path
           style="stroke:none"
           d="M 8.421875 -2.828125 L 8.484375 -3.296875 L 0.640625 -3.296875 L 0.546875 -2.828125 Z M 8.421875 -2.828125 "
           id="path1127" />
      </symbol>
      <symbol
         overflow="visible"
         id="glyph3-0">
        <path
           style="stroke:none"
           d=""
           id="path1130" />
      </symbol>
      <symbol
         overflow="visible"
         id="glyph3-1">
        <path
           style="stroke:none"
           d="M 2.21875 -5.5 C 1.53125 -5.5 0.796875 -5.484375 0.578125 -4.796875 L 0.25 -3.4375 L 0.5 -3.328125 L 0.71875 -3.890625 C 0.984375 -4.59375 1.296875 -4.703125 1.890625 -4.703125 L 2.765625 -4.703125 C 2.46875 -3.375 1.828125 -1.65625 1.03125 -0.28125 L 1.046875 -0.125 L 1.703125 0.0625 L 1.828125 -0.0625 C 2.359375 -1.59375 2.890625 -3.15625 3.21875 -4.703125 L 4.921875 -4.703125 L 5 -4.640625 C 4.875 -3.6875 4.8125 -2.71875 4.8125 -1.75 C 4.8125 -1.21875 4.828125 -0.46875 5.171875 -0.140625 C 5.3125 0 5.578125 0 5.8125 0 C 6.296875 0 6.796875 -0.375 7.15625 -0.71875 L 7.046875 -0.921875 L 6.96875 -0.9375 C 6.796875 -0.828125 6.59375 -0.75 6.390625 -0.75 C 5.609375 -0.75 5.625 -2.296875 5.625 -3.375 C 5.625 -3.78125 5.671875 -4.203125 5.703125 -4.625 L 5.78125 -4.703125 C 6.234375 -4.71875 6.6875 -4.859375 7.09375 -5.046875 L 7.5 -5.75 L 7.40625 -5.828125 C 7 -5.625 6.546875 -5.5 6.078125 -5.5 Z M 2.21875 -5.5 "
           id="path1133" />
      </symbol>
      <symbol
         overflow="visible"
         id="glyph4-0">
        <path
           style="stroke:none"
           d=""
           id="path1136" />
      </symbol>
      <symbol
         overflow="visible"
         id="glyph4-1">
        <path
           style="stroke:none"
           d="M 1.484375 -3.671875 C 1.015625 -3.671875 0.53125 -3.65625 0.390625 -3.203125 L 0.171875 -2.296875 L 0.328125 -2.21875 L 0.484375 -2.59375 C 0.65625 -3.0625 0.875 -3.140625 1.265625 -3.140625 L 1.84375 -3.140625 C 1.65625 -2.25 1.21875 -1.109375 0.6875 -0.1875 L 0.6875 -0.078125 L 1.125 0.046875 L 1.21875 -0.046875 C 1.5625 -1.0625 1.921875 -2.109375 2.140625 -3.140625 L 3.28125 -3.140625 L 3.328125 -3.09375 C 3.25 -2.453125 3.203125 -1.8125 3.203125 -1.171875 C 3.203125 -0.8125 3.21875 -0.3125 3.453125 -0.09375 C 3.546875 0 3.71875 0 3.875 0 C 4.203125 0 4.53125 -0.25 4.765625 -0.484375 L 4.6875 -0.609375 L 4.640625 -0.625 C 4.53125 -0.546875 4.40625 -0.5 4.25 -0.5 C 3.734375 -0.5 3.75 -1.53125 3.75 -2.25 C 3.75 -2.515625 3.78125 -2.8125 3.796875 -3.078125 L 3.859375 -3.140625 C 4.15625 -3.140625 4.453125 -3.234375 4.71875 -3.359375 L 5 -3.828125 L 4.9375 -3.890625 C 4.671875 -3.75 4.359375 -3.671875 4.0625 -3.671875 Z M 1.484375 -3.671875 "
           id="path1139" />
      </symbol>
      <symbol
         overflow="visible"
         id="glyph5-0">
        <path
           style="stroke:none"
           d=""
           id="path1142" />
      </symbol>
      <symbol
         overflow="visible"
         id="glyph5-1">
        <path
           style="stroke:none"
           d="M 3.28125 6.734375 L 1.78125 3.640625 C 1.734375 3.546875 1.703125 3.515625 1.640625 3.515625 C 1.609375 3.515625 1.59375 3.515625 1.515625 3.578125 L 0.703125 4.140625 C 0.59375 4.21875 0.59375 4.25 0.59375 4.28125 C 0.59375 4.328125 0.625 4.390625 0.703125 4.390625 C 0.734375 4.390625 0.75 4.390625 0.84375 4.3125 C 0.953125 4.25 1.109375 4.125 1.25 4.03125 L 2.921875 7.46875 C 2.984375 7.609375 3.015625 7.609375 3.09375 7.609375 C 3.234375 7.609375 3.265625 7.5625 3.328125 7.4375 L 7.171875 -0.03125 C 7.234375 -0.140625 7.234375 -0.15625 7.234375 -0.1875 C 7.234375 -0.28125 7.15625 -0.359375 7.046875 -0.359375 C 6.953125 -0.359375 6.921875 -0.296875 6.859375 -0.203125 Z M 3.28125 6.734375 "
           id="path1145" />
      </symbol>
    </g>
    <clipPath
       id="clip1">
      <path
         d="M 0 255 L 510.734375 255 L 510.734375 256 L 0 256 Z M 0 255 "
         id="path1150" />
    </clipPath>
    <clipPath
       id="clip2">
      <path
         d="M 506 253 L 510.734375 253 L 510.734375 257 L 506 257 Z M 506 253 "
         id="path1153" />
    </clipPath>
    <clipPath
       id="clip3">
      <path
         d="M 506 253 L 510.734375 253 L 510.734375 258 L 506 258 Z M 506 253 "
         id="path1156" />
    </clipPath>
    <clipPath
       id="clip4">
      <path
         d="M 255 0 L 256 0 L 256 510.734375 L 255 510.734375 Z M 255 0 "
         id="path1159" />
    </clipPath>
  </defs>
  <g
     id="surface1">
    <g
       clip-path="url(#clip1)"
       clip-rule="nonzero"
       id="g1166">
      <path
         style="fill:none;stroke-width:0.5;stroke-linecap:round;stroke-linejoin:round;stroke:#000000;stroke-opacity:1;stroke-miterlimit:10"
         d="M -255.11742 0.0001925 L 255.116955 0.0001925 "
         transform="matrix(1,0,0,-1,255.36742,255.36738)"
         id="path1164" />
    </g>
    <g
       clip-path="url(#clip2)"
       clip-rule="nonzero"
       id="g1170">
      <path
         style="stroke:none;fill-rule:nonzero;fill:#000000;fill-opacity:1"
         d="M 506.789062 256.898438 L 510.484375 255.367188 L 506.789062 253.835938 Z M 506.789062 256.898438 "
         id="path1168" />
    </g>
    <g
       clip-path="url(#clip3)"
       clip-rule="nonzero"
       id="g1174">
      <path
         style="fill:none;stroke-width:0.5;stroke-linecap:round;stroke-linejoin:round;stroke:#000000;stroke-opacity:1;stroke-miterlimit:10"
         d="M 251.421642 -1.531058 L 255.116955 0.0001925 L 251.421642 1.531442 Z M 251.421642 -1.531058 "
         transform="matrix(1,0,0,-1,255.36742,255.36738)"
         id="path1172" />
    </g>
    <g
       clip-path="url(#clip4)"
       clip-rule="nonzero"
       id="g1178">
      <path
         style="fill:none;stroke-width:0.5;stroke-linecap:round;stroke-linejoin:round;stroke:#000000;stroke-opacity:1;stroke-miterlimit:10"
         d="M -0.0002325 -255.116995 L -0.0002325 255.11738 "
         transform="matrix(1,0,0,-1,255.36742,255.36738)"
         id="path1176" />
    </g>
    <path
       style="fill-rule:nonzero;fill:#000000;fill-opacity:1;stroke-width:0.5;stroke-linecap:round;stroke-linejoin:round;stroke:#000000;stroke-opacity:1;stroke-miterlimit:10"
       d="M 1.531017 251.422067 L -0.0002325 255.11738 L -1.531483 251.422067 Z M 1.531017 251.422067 "
       transform="matrix(1,0,0,-1,255.36742,255.36738)"
       id="path1180" />
    <path
       style="fill:none;stroke-width:1.3;stroke-linecap:round;stroke-linejoin:round;stroke:#004d4d;stroke-opacity:1;stroke-miterlimit:10"
       d="M 212.597424 0.0001925 C 212.597424 56.386911 190.19508 110.457224 150.327892 150.328317 C 110.456799 190.195505 56.386486 212.597849 -0.0002325 212.597849 C -56.386951 212.597849 -110.457264 190.195505 -150.328358 150.328317 C -190.195545 110.457224 -212.597889 56.386911 -212.597889 0.0001925 C -212.597889 -56.386526 -190.195545 -110.456839 -150.328358 -150.327933 C -110.457264 -190.19512 -56.386951 -212.597464 -0.0002325 -212.597464 C 56.386486 -212.597464 110.456799 -190.19512 150.327892 -150.327933 C 190.19508 -110.456839 212.597424 -56.386526 212.597424 0.0001925 Z M 212.597424 0.0001925 "
       transform="matrix(1,0,0,-1,255.36742,255.36738)"
       id="path1182" />
    <path
       style="fill:none;stroke-width:0.5;stroke-linecap:round;stroke-linejoin:round;stroke:#004d4d;stroke-opacity:1;stroke-dasharray:3,3;stroke-miterlimit:10"
       d="M 212.597424 0.0001925 L 106.300549 184.11738 L -0.0002325 0.0001925 "
       transform="matrix(1,0,0,-1,255.36742,255.36738)"
       id="path1184" />
    <path
       style="fill:none;stroke-width:0.5;stroke-linecap:round;stroke-linejoin:round;stroke:#004d4d;stroke-opacity:1;stroke-dasharray:3,3;stroke-miterlimit:10"
       d="M 106.300549 184.11738 L -106.301014 184.11738 L -0.0002325 0.0001925 "
       transform="matrix(1,0,0,-1,255.36742,255.36738)"
       id="path1186" />
    <path
       style="fill:none;stroke-width:0.5;stroke-linecap:round;stroke-linejoin:round;stroke:#004d4d;stroke-opacity:1;stroke-dasharray:3,3;stroke-miterlimit:10"
       d="M -106.301014 184.11738 L -212.597889 0.0001925 L -0.0002325 0.0001925 "
       transform="matrix(1,0,0,-1,255.36742,255.36738)"
       id="path1188" />
    <path
       style="fill:none;stroke-width:0.5;stroke-linecap:round;stroke-linejoin:round;stroke:#004d4d;stroke-opacity:1;stroke-dasharray:3,3;stroke-miterlimit:10"
       d="M -212.597889 0.0001925 L -106.301014 -184.116995 L -0.0002325 0.0001925 "
       transform="matrix(1,0,0,-1,255.36742,255.36738)"
       id="path1190" />
    <path
       style="fill:none;stroke-width:0.5;stroke-linecap:round;stroke-linejoin:round;stroke:#004d4d;stroke-opacity:1;stroke-dasharray:3,3;stroke-miterlimit:10"
       d="M -106.301014 -184.116995 L 106.300549 -184.116995 L -0.0002325 0.0001925 "
       transform="matrix(1,0,0,-1,255.36742,255.36738)"
       id="path1192" />
    <path
       style="fill:none;stroke-width:0.5;stroke-linecap:round;stroke-linejoin:round;stroke:#004d4d;stroke-opacity:1;stroke-dasharray:3,3;stroke-miterlimit:10"
       d="M 106.300549 -184.116995 L 212.597424 0.0001925 L -0.0002325 0.0001925 "
       transform="matrix(1,0,0,-1,255.36742,255.36738)"
       id="path1194" />
    <path
       style="fill:none;stroke-width:0.5;stroke-linecap:round;stroke-linejoin:round;stroke:#004d4d;stroke-opacity:1;stroke-dasharray:3,3;stroke-miterlimit:10"
       d="M 106.300549 -184.116995 L 106.300549 184.11738 "
       transform="matrix(1,0,0,-1,255.36742,255.36738)"
       id="path1196" />
    <path
       style="fill:none;stroke-width:0.5;stroke-linecap:round;stroke-linejoin:round;stroke:#004d4d;stroke-opacity:1;stroke-dasharray:3,3;stroke-miterlimit:10"
       d="M -106.301014 -184.116995 L -106.301014 184.11738 "
       transform="matrix(1,0,0,-1,255.36742,255.36738)"
       id="path1198" />
    <g
       style="fill:#000000;fill-opacity:1"
       id="g1202">
      <use
         xlink:href="#glyph0-1"
         x="471.46582"
         y="267.15058"
         id="use1200" />
    </g>
    <path
       style="fill:none;stroke-width:3;stroke-linecap:round;stroke-linejoin:round;stroke:#000000;stroke-opacity:1;stroke-miterlimit:10"
       d="M 212.597424 0.0001925 L 212.597424 0.0001925 "
       transform="matrix(1,0,0,-1,255.36742,255.36738)"
       id="path1204" />
    <g
       style="fill:#004d4d;fill-opacity:1"
       id="g1208">
      <use
         xlink:href="#glyph1-1"
         x="366.85812"
         y="264.38958"
         id="use1206" />
    </g>
    <path
       style="fill:none;stroke-width:0.4782;stroke-linecap:butt;stroke-linejoin:round;stroke:#004d4d;stroke-opacity:1;stroke-miterlimit:10"
       d="M 110.995861 -10.741995 L 115.10133 -10.741995 "
       transform="matrix(1,0,0,-1,255.36742,255.36738)"
       id="path1210" />
    <g
       style="fill:#004d4d;fill-opacity:1"
       id="g1214">
      <use
         xlink:href="#glyph1-2"
         x="366.36212"
         y="273.21928"
         id="use1212" />
    </g>
    <g
       style="fill:#004d4d;fill-opacity:1"
       id="g1218">
      <use
         xlink:href="#glyph2-1"
         x="152.56822"
         y="269.09668"
         id="use1216" />
    </g>
    <g
       style="fill:#004d4d;fill-opacity:1"
       id="g1222">
      <use
         xlink:href="#glyph1-1"
         x="163.30052"
         y="264.38958"
         id="use1220" />
    </g>
    <path
       style="fill:none;stroke-width:0.4782;stroke-linecap:butt;stroke-linejoin:round;stroke:#004d4d;stroke-opacity:1;stroke-miterlimit:10"
       d="M -92.562733 -10.741995 L -88.453358 -10.741995 "
       transform="matrix(1,0,0,-1,255.36742,255.36738)"
       id="path1224" />
    <g
       style="fill:#004d4d;fill-opacity:1"
       id="g1228">
      <use
         xlink:href="#glyph1-2"
         x="162.80452"
         y="273.21928"
         id="use1226" />
    </g>
    <g
       style="fill:#000000;fill-opacity:1"
       id="g1232">
      <use
         xlink:href="#glyph3-1"
         x="31.98792"
         y="264.35648"
         id="use1230" />
    </g>
    <path
       style="fill:none;stroke-width:3;stroke-linecap:round;stroke-linejoin:round;stroke:#000000;stroke-opacity:1;stroke-miterlimit:10"
       d="M -212.597889 0.0001925 L -212.597889 0.0001925 "
       transform="matrix(1,0,0,-1,255.36742,255.36738)"
       id="path1234" />
    <g
       style="fill:#004d4d;fill-opacity:1"
       id="g1238">
      <use
         xlink:href="#glyph4-1"
         x="366.36212"
         y="58.81218"
         id="use1236" />
    </g>
    <path
       style="fill:none;stroke-width:0.4782;stroke-linecap:butt;stroke-linejoin:round;stroke:#004d4d;stroke-opacity:1;stroke-miterlimit:10"
       d="M 110.995861 194.83613 L 115.847424 194.83613 "
       transform="matrix(1,0,0,-1,255.36742,255.36738)"
       id="path1240" />
    <g
       style="fill:#004d4d;fill-opacity:1"
       id="g1244">
      <use
         xlink:href="#glyph1-3"
         x="366.61392"
         y="67.64188"
         id="use1242" />
    </g>
    <g
       style="fill:#004d4d;fill-opacity:1"
       id="g1248">
      <use
         xlink:href="#glyph1-2"
         x="135.41022"
         y="58.81218"
         id="use1246" />
    </g>
    <g
       style="fill:#004d4d;fill-opacity:1"
       id="g1252">
      <use
         xlink:href="#glyph4-1"
         x="139.51862"
         y="58.81218"
         id="use1250" />
    </g>
    <path
       style="fill:none;stroke-width:0.4782;stroke-linecap:butt;stroke-linejoin:round;stroke:#004d4d;stroke-opacity:1;stroke-miterlimit:10"
       d="M -119.957264 194.83613 L -110.996326 194.83613 "
       transform="matrix(1,0,0,-1,255.36742,255.36738)"
       id="path1254" />
    <g
       style="fill:#004d4d;fill-opacity:1"
       id="g1258">
      <use
         xlink:href="#glyph1-3"
         x="137.71622"
         y="67.64188"
         id="use1256" />
    </g>
    <g
       style="fill:#004d4d;fill-opacity:1"
       id="g1262">
      <use
         xlink:href="#glyph2-1"
         x="125.17392"
         y="453.21278"
         id="use1260" />
    </g>
    <g
       style="fill:#004d4d;fill-opacity:1"
       id="g1266">
      <use
         xlink:href="#glyph1-2"
         x="135.41022"
         y="448.50568"
         id="use1264" />
    </g>
    <g
       style="fill:#004d4d;fill-opacity:1"
       id="g1270">
      <use
         xlink:href="#glyph4-1"
         x="139.51862"
         y="448.50568"
         id="use1268" />
    </g>
    <path
       style="fill:none;stroke-width:0.4782;stroke-linecap:butt;stroke-linejoin:round;stroke:#004d4d;stroke-opacity:1;stroke-miterlimit:10"
       d="M -119.957264 -194.855276 L -110.996326 -194.855276 "
       transform="matrix(1,0,0,-1,255.36742,255.36738)"
       id="path1272" />
    <g
       style="fill:#004d4d;fill-opacity:1"
       id="g1276">
      <use
         xlink:href="#glyph1-3"
         x="137.71622"
         y="457.33538"
         id="use1274" />
    </g>
    <g
       style="fill:#004d4d;fill-opacity:1"
       id="g1280">
      <use
         xlink:href="#glyph2-1"
         x="365.16662"
         y="451.34998"
         id="use1278" />
    </g>
    <g
       style="fill:#004d4d;fill-opacity:1"
       id="g1284">
      <use
         xlink:href="#glyph4-1"
         x="375.40292"
         y="446.64288"
         id="use1282" />
    </g>
    <path
       style="fill:none;stroke-width:0.4782;stroke-linecap:butt;stroke-linejoin:round;stroke:#004d4d;stroke-opacity:1;stroke-miterlimit:10"
       d="M 120.034924 -192.991995 L 124.890392 -192.991995 "
       transform="matrix(1,0,0,-1,255.36742,255.36738)"
       id="path1286" />
    <g
       style="fill:#004d4d;fill-opacity:1"
       id="g1290">
      <use
         xlink:href="#glyph1-3"
         x="375.65472"
         y="455.47258"
         id="use1288" />
    </g>
    <g
       style="fill:#004d4d;fill-opacity:1"
       id="g1294">
      <use
         xlink:href="#glyph5-1"
         x="239.26442"
         y="75.46858"
         id="use1292" />
    </g>
    <path
       style="fill:none;stroke-width:0.3587;stroke-linecap:butt;stroke-linejoin:round;stroke:#004d4d;stroke-opacity:1;stroke-miterlimit:10"
       d="M -9.047108 180.078317 L -4.695545 180.078317 "
       transform="matrix(1,0,0,-1,255.36742,255.36738)"
       id="path1296" />
    <g
       style="fill:#004d4d;fill-opacity:1"
       id="g1300">
      <use
         xlink:href="#glyph1-3"
         x="246.32142"
         y="82.20488"
         id="use1298" />
    </g>
    <path
       style="fill:none;stroke-width:0.4782;stroke-linecap:butt;stroke-linejoin:round;stroke:#004d4d;stroke-opacity:1;stroke-miterlimit:10"
       d="M -16.101795 171.445505 L -4.695545 171.445505 "
       transform="matrix(1,0,0,-1,255.36742,255.36738)"
       id="path1302" />
    <g
       style="fill:#004d4d;fill-opacity:1"
       id="g1306">
      <use
         xlink:href="#glyph1-2"
         x="242.91402"
         y="91.03458"
         id="use1304" />
    </g>
    <g
       style="fill:#004d4d;fill-opacity:1"
       id="g1310">
      <use
         xlink:href="#glyph2-1"
         x="229.02812"
         y="431.86088"
         id="use1308" />
    </g>
    <g
       style="fill:#004d4d;fill-opacity:1"
       id="g1314">
      <use
         xlink:href="#glyph5-1"
         x="239.26442"
         y="420.41748"
         id="use1312" />
    </g>
    <path
       style="fill:none;stroke-width:0.3587;stroke-linecap:butt;stroke-linejoin:round;stroke:#004d4d;stroke-opacity:1;stroke-miterlimit:10"
       d="M -9.047108 -164.870901 L -4.695545 -164.870901 "
       transform="matrix(1,0,0,-1,255.36742,255.36738)"
       id="path1316" />
    <g
       style="fill:#004d4d;fill-opacity:1"
       id="g1320">
      <use
         xlink:href="#glyph1-3"
         x="246.32142"
         y="427.15378"
         id="use1318" />
    </g>
    <path
       style="fill:none;stroke-width:0.4782;stroke-linecap:butt;stroke-linejoin:round;stroke:#004d4d;stroke-opacity:1;stroke-miterlimit:10"
       d="M -16.101795 -173.503714 L -4.695545 -173.503714 "
       transform="matrix(1,0,0,-1,255.36742,255.36738)"
       id="path1322" />
    <g
       style="fill:#004d4d;fill-opacity:1"
       id="g1326">
      <use
         xlink:href="#glyph1-2"
         x="242.91402"
         y="435.98348"
         id="use1324" />
    </g>
    <path
       style="fill:none;stroke-width:0.5;stroke-linecap:round;stroke-linejoin:round;stroke:#0080ff;stroke-opacity:1;stroke-dasharray:3,3;stroke-miterlimit:10"
       d="M -0.0002325 212.597849 L 184.116955 106.300974 L -0.0002325 0.0001925 "
       transform="matrix(1,0,0,-1,255.36742,255.36738)"
       id="path1328" />
    <path
       style="fill:none;stroke-width:0.5;stroke-linecap:round;stroke-linejoin:round;stroke:#0080ff;stroke-opacity:1;stroke-dasharray:3,3;stroke-miterlimit:10"
       d="M -184.11742 106.300974 L -0.0002325 212.597849 L -0.0002325 0.0001925 "
       transform="matrix(1,0,0,-1,255.36742,255.36738)"
       id="path1330" />
    <path
       style="fill:none;stroke-width:0.5;stroke-linecap:round;stroke-linejoin:round;stroke:#0080ff;stroke-opacity:1;stroke-dasharray:3,3;stroke-miterlimit:10"
       d="M -184.11742 -106.300589 L -184.11742 106.300974 L -0.0002325 0.0001925 "
       transform="matrix(1,0,0,-1,255.36742,255.36738)"
       id="path1332" />
    <path
       style="fill:none;stroke-width:0.5;stroke-linecap:round;stroke-linejoin:round;stroke:#0080ff;stroke-opacity:1;stroke-dasharray:3,3;stroke-miterlimit:10"
       d="M -0.0002325 -212.597464 L -184.11742 -106.300589 L -0.0002325 0.0001925 "
       transform="matrix(1,0,0,-1,255.36742,255.36738)"
       id="path1334" />
    <path
       style="fill:none;stroke-width:0.5;stroke-linecap:round;stroke-linejoin:round;stroke:#0080ff;stroke-opacity:1;stroke-dasharray:3,3;stroke-miterlimit:10"
       d="M 184.116955 -106.300589 L -0.0002325 -212.597464 L -0.0002325 0.0001925 "
       transform="matrix(1,0,0,-1,255.36742,255.36738)"
       id="path1336" />
    <path
       style="fill:none;stroke-width:0.5;stroke-linecap:round;stroke-linejoin:round;stroke:#0080ff;stroke-opacity:1;stroke-dasharray:3,3;stroke-miterlimit:10"
       d="M 184.116955 106.300974 L 184.116955 -106.300589 L -0.0002325 0.0001925 "
       transform="matrix(1,0,0,-1,255.36742,255.36738)"
       id="path1338" />
    <path
       style="fill:none;stroke-width:0.5;stroke-linecap:round;stroke-linejoin:round;stroke:#0080ff;stroke-opacity:1;stroke-dasharray:3,3;stroke-miterlimit:10"
       d="M -184.11742 106.300974 L 184.116955 106.300974 "
       transform="matrix(1,0,0,-1,255.36742,255.36738)"
       id="path1340" />
    <path
       style="fill:none;stroke-width:0.5;stroke-linecap:round;stroke-linejoin:round;stroke:#0080ff;stroke-opacity:1;stroke-dasharray:3,3;stroke-miterlimit:10"
       d="M -184.11742 -106.300589 L 184.116955 -106.300589 "
       transform="matrix(1,0,0,-1,255.36742,255.36738)"
       id="path1342" />
    <g
       style="fill:#0080ff;fill-opacity:1"
       id="g1346">
      <use
         xlink:href="#glyph4-1"
         x="444.17902"
         y="136.57048"
         id="use1344" />
    </g>
    <path
       style="fill:none;stroke-width:0.4782;stroke-linecap:butt;stroke-linejoin:round;stroke:#0080ff;stroke-opacity:1;stroke-miterlimit:10"
       d="M 188.812267 117.078317 L 193.66383 117.078317 "
       transform="matrix(1,0,0,-1,255.36742,255.36738)"
       id="path1348" />
    <g
       style="fill:#0080ff;fill-opacity:1"
       id="g1352">
      <use
         xlink:href="#glyph1-4"
         x="444.40732"
         y="145.40018"
         id="use1350" />
    </g>
    <g
       style="fill:#000000;fill-opacity:1"
       id="g1356">
      <use
         xlink:href="#glyph4-1"
         x="260.06292"
         y="30.43848"
         id="use1354" />
    </g>
    <path
       style="fill:none;stroke-width:0.4782;stroke-linecap:butt;stroke-linejoin:round;stroke:#000000;stroke-opacity:1;stroke-miterlimit:10"
       d="M 4.69508 223.21113 L 9.550549 223.21113 "
       transform="matrix(1,0,0,-1,255.36742,255.36738)"
       id="path1358" />
    <g
       style="fill:#000000;fill-opacity:1"
       id="g1362">
      <use
         xlink:href="#glyph1-2"
         x="260.43572"
         y="39.26818"
         id="use1360" />
    </g>
    <path
       style="fill:none;stroke-width:3;stroke-linecap:round;stroke-linejoin:round;stroke:#000000;stroke-opacity:1;stroke-miterlimit:10"
       d="M -0.0002325 212.597849 L -0.0002325 212.597849 "
       transform="matrix(1,0,0,-1,255.36742,255.36738)"
       id="path1364" />
    <g
       style="fill:#0080ff;fill-opacity:1"
       id="g1368">
      <use
         xlink:href="#glyph1-5"
         x="57.44492"
         y="136.56968"
         id="use1366" />
    </g>
    <g
       style="fill:#0080ff;fill-opacity:1"
       id="g1372">
      <use
         xlink:href="#glyph4-1"
         x="61.70172"
         y="136.56968"
         id="use1370" />
    </g>
    <path
       style="fill:none;stroke-width:0.4782;stroke-linecap:butt;stroke-linejoin:round;stroke:#0080ff;stroke-opacity:1;stroke-miterlimit:10"
       d="M -197.922108 117.078317 L -188.812733 117.078317 "
       transform="matrix(1,0,0,-1,255.36742,255.36738)"
       id="path1374" />
    <g
       style="fill:#0080ff;fill-opacity:1"
       id="g1378">
      <use
         xlink:href="#glyph1-4"
         x="59.80162"
         y="145.39938"
         id="use1376" />
    </g>
    <g
       style="fill:#0080ff;fill-opacity:1"
       id="g1382">
      <use
         xlink:href="#glyph2-1"
         x="47.20862"
         y="375.39588"
         id="use1380" />
    </g>
    <g
       style="fill:#0080ff;fill-opacity:1"
       id="g1386">
      <use
         xlink:href="#glyph1-5"
         x="57.44492"
         y="370.68878"
         id="use1384" />
    </g>
    <g
       style="fill:#0080ff;fill-opacity:1"
       id="g1390">
      <use
         xlink:href="#glyph4-1"
         x="61.70172"
         y="370.68878"
         id="use1388" />
    </g>
    <path
       style="fill:none;stroke-width:0.4782;stroke-linecap:butt;stroke-linejoin:round;stroke:#0080ff;stroke-opacity:1;stroke-miterlimit:10"
       d="M -197.922108 -117.03887 L -188.812733 -117.03887 "
       transform="matrix(1,0,0,-1,255.36742,255.36738)"
       id="path1392" />
    <g
       style="fill:#0080ff;fill-opacity:1"
       id="g1396">
      <use
         xlink:href="#glyph1-4"
         x="59.80172"
         y="379.51848"
         id="use1394" />
    </g>
    <g
       style="fill:#0080ff;fill-opacity:1"
       id="g1400">
      <use
         xlink:href="#glyph2-1"
         x="235.58152"
         y="479.83318"
         id="use1398" />
    </g>
    <g
       style="fill:#0080ff;fill-opacity:1"
       id="g1404">
      <use
         xlink:href="#glyph4-1"
         x="245.81782"
         y="475.12608"
         id="use1402" />
    </g>
    <path
       style="fill:none;stroke-width:0.4782;stroke-linecap:butt;stroke-linejoin:round;stroke:#0080ff;stroke-opacity:1;stroke-miterlimit:10"
       d="M -9.551014 -221.47637 L -4.695545 -221.47637 "
       transform="matrix(1,0,0,-1,255.36742,255.36738)"
       id="path1406" />
    <g
       style="fill:#0080ff;fill-opacity:1"
       id="g1410">
      <use
         xlink:href="#glyph1-2"
         x="246.19062"
         y="483.95578"
         id="use1408" />
    </g>
    <g
       style="fill:#0080ff;fill-opacity:1"
       id="g1414">
      <use
         xlink:href="#glyph2-1"
         x="442.98352"
         y="373.53398"
         id="use1412" />
    </g>
    <g
       style="fill:#0080ff;fill-opacity:1"
       id="g1418">
      <use
         xlink:href="#glyph4-1"
         x="453.21982"
         y="368.82688"
         id="use1416" />
    </g>
    <path
       style="fill:none;stroke-width:0.4782;stroke-linecap:butt;stroke-linejoin:round;stroke:#0080ff;stroke-opacity:1;stroke-miterlimit:10"
       d="M 197.85133 -115.179495 L 202.706799 -115.179495 "
       transform="matrix(1,0,0,-1,255.36742,255.36738)"
       id="path1420" />
    <g
       style="fill:#0080ff;fill-opacity:1"
       id="g1424">
      <use
         xlink:href="#glyph1-4"
         x="453.44812"
         y="377.65658"
         id="use1422" />
    </g>
    <g
       style="fill:#0080ff;fill-opacity:1"
       id="g1428">
      <use
         xlink:href="#glyph5-1"
         x="423.38052"
         y="259.58468"
         id="use1426" />
    </g>
    <path
       style="fill:none;stroke-width:0.3587;stroke-linecap:butt;stroke-linejoin:round;stroke:#0080ff;stroke-opacity:1;stroke-miterlimit:10"
       d="M 175.07008 -4.03887 L 179.421642 -4.03887 "
       transform="matrix(1,0,0,-1,255.36742,255.36738)"
       id="path1430" />
    <g
       style="fill:#0080ff;fill-opacity:1"
       id="g1434">
      <use
         xlink:href="#glyph1-3"
         x="430.43752"
         y="266.32098"
         id="use1432" />
    </g>
    <path
       style="fill:none;stroke-width:0.4782;stroke-linecap:butt;stroke-linejoin:round;stroke:#0080ff;stroke-opacity:1;stroke-miterlimit:10"
       d="M 168.011486 -12.671683 L 179.421642 -12.671683 "
       transform="matrix(1,0,0,-1,255.36742,255.36738)"
       id="path1436" />
    <g
       style="fill:#0080ff;fill-opacity:1"
       id="g1440">
      <use
         xlink:href="#glyph1-2"
         x="427.03012"
         y="275.15068"
         id="use1438" />
    </g>
    <g
       style="fill:#0080ff;fill-opacity:1"
       id="g1444">
      <use
         xlink:href="#glyph2-1"
         x="74.75132"
         y="271.02808"
         id="use1442" />
    </g>
    <g
       style="fill:#0080ff;fill-opacity:1"
       id="g1448">
      <use
         xlink:href="#glyph5-1"
         x="84.98762"
         y="259.58468"
         id="use1446" />
    </g>
    <path
       style="fill:none;stroke-width:0.3587;stroke-linecap:butt;stroke-linejoin:round;stroke:#0080ff;stroke-opacity:1;stroke-miterlimit:10"
       d="M -163.324451 -4.03887 L -158.972889 -4.03887 "
       transform="matrix(1,0,0,-1,255.36742,255.36738)"
       id="path1450" />
    <g
       style="fill:#0080ff;fill-opacity:1"
       id="g1454">
      <use
         xlink:href="#glyph1-3"
         x="92.04462"
         y="266.32098"
         id="use1452" />
    </g>
    <path
       style="fill:none;stroke-width:0.4782;stroke-linecap:butt;stroke-linejoin:round;stroke:#0080ff;stroke-opacity:1;stroke-miterlimit:10"
       d="M -170.379139 -12.671683 L -158.972889 -12.671683 "
       transform="matrix(1,0,0,-1,255.36742,255.36738)"
       id="path1456" />
    <g
       style="fill:#0080ff;fill-opacity:1"
       id="g1460">
      <use
         xlink:href="#glyph1-2"
         x="88.63722"
         y="275.15068"
         id="use1458" />
    </g>
    <g
       style="fill:#0080ff;fill-opacity:1"
       id="g1464">
      <use
         xlink:href="#glyph1-1"
         x="247.05952"
         y="158.09038"
         id="use1462" />
    </g>
    <path
       style="fill:none;stroke-width:0.4782;stroke-linecap:butt;stroke-linejoin:round;stroke:#0080ff;stroke-opacity:1;stroke-miterlimit:10"
       d="M -8.80492 95.558786 L -4.695545 95.558786 "
       transform="matrix(1,0,0,-1,255.36742,255.36738)"
       id="path1466" />
    <g
       style="fill:#0080ff;fill-opacity:1"
       id="g1470">
      <use
         xlink:href="#glyph1-2"
         x="246.56352"
         y="166.92008"
         id="use1468" />
    </g>
    <g
       style="fill:#0080ff;fill-opacity:1"
       id="g1474">
      <use
         xlink:href="#glyph2-1"
         x="236.32722"
         y="375.39588"
         id="use1472" />
    </g>
    <g
       style="fill:#0080ff;fill-opacity:1"
       id="g1478">
      <use
         xlink:href="#glyph1-1"
         x="247.05952"
         y="370.68878"
         id="use1476" />
    </g>
    <path
       style="fill:none;stroke-width:0.4782;stroke-linecap:butt;stroke-linejoin:round;stroke:#0080ff;stroke-opacity:1;stroke-miterlimit:10"
       d="M -8.80492 -117.03887 L -4.695545 -117.03887 "
       transform="matrix(1,0,0,-1,255.36742,255.36738)"
       id="path1480" />
    <g
       style="fill:#0080ff;fill-opacity:1"
       id="g1484">
      <use
         xlink:href="#glyph1-2"
         x="246.56352"
         y="379.51848"
         id="use1482" />
    </g>
    <path
       style="fill:none;stroke-width:0.5;stroke-linecap:round;stroke-linejoin:round;stroke:#ff0000;stroke-opacity:1;stroke-dasharray:3,3;stroke-miterlimit:10"
       d="M 150.331799 -150.331839 L 150.331799 150.328317 L -0.0002325 0.0001925 "
       transform="matrix(1,0,0,-1,255.36742,255.36738)"
       id="path1486" />
    <path
       style="fill:none;stroke-width:0.5;stroke-linecap:round;stroke-linejoin:round;stroke:#ff0000;stroke-opacity:1;stroke-dasharray:3,3;stroke-miterlimit:10"
       d="M 150.331799 150.328317 L -150.328358 150.328317 L -0.0002325 0.0001925 "
       transform="matrix(1,0,0,-1,255.36742,255.36738)"
       id="path1488" />
    <path
       style="fill:none;stroke-width:0.5;stroke-linecap:round;stroke-linejoin:round;stroke:#ff0000;stroke-opacity:1;stroke-dasharray:3,3;stroke-miterlimit:10"
       d="M -150.328358 150.328317 L -150.328358 -150.331839 L -0.0002325 0.0001925 "
       transform="matrix(1,0,0,-1,255.36742,255.36738)"
       id="path1490" />
    <path
       style="fill:none;stroke-width:0.5;stroke-linecap:round;stroke-linejoin:round;stroke:#ff0000;stroke-opacity:1;stroke-dasharray:3,3;stroke-miterlimit:10"
       d="M -150.328358 -150.331839 L 150.331799 -150.331839 L -0.0002325 0.0001925 "
       transform="matrix(1,0,0,-1,255.36742,255.36738)"
       id="path1492" />
    <g
       style="fill:#ff0000;fill-opacity:1"
       id="g1496">
      <use
         xlink:href="#glyph4-1"
         x="410.39282"
         y="92.66868"
         id="use1494" />
    </g>
    <path
       style="fill:none;stroke-width:0.4782;stroke-linecap:butt;stroke-linejoin:round;stroke:#ff0000;stroke-opacity:1;stroke-miterlimit:10"
       d="M 155.027111 160.980661 L 159.878674 160.980661 "
       transform="matrix(1,0,0,-1,255.36742,255.36738)"
       id="path1498" />
    <g
       style="fill:#ff0000;fill-opacity:1"
       id="g1502">
      <use
         xlink:href="#glyph1-6"
         x="410.55482"
         y="101.49838"
         id="use1500" />
    </g>
    <g
       style="fill:#000000;fill-opacity:1"
       id="g1506">
      <use
         xlink:href="#glyph4-1"
         x="260.06292"
         y="30.43928"
         id="use1504" />
    </g>
    <path
       style="fill:none;stroke-width:0.4782;stroke-linecap:butt;stroke-linejoin:round;stroke:#000000;stroke-opacity:1;stroke-miterlimit:10"
       d="M 4.69508 223.21113 L 9.550549 223.21113 "
       transform="matrix(1,0,0,-1,255.36742,255.36738)"
       id="path1508" />
    <g
       style="fill:#000000;fill-opacity:1"
       id="g1512">
      <use
         xlink:href="#glyph1-2"
         x="260.43572"
         y="39.26898"
         id="use1510" />
    </g>
    <path
       style="fill:none;stroke-width:3;stroke-linecap:round;stroke-linejoin:round;stroke:#000000;stroke-opacity:1;stroke-miterlimit:10"
       d="M -0.0002325 212.597849 L -0.0002325 212.597849 "
       transform="matrix(1,0,0,-1,255.36742,255.36738)"
       id="path1514" />
    <g
       style="fill:#ff0000;fill-opacity:1"
       id="g1518">
      <use
         xlink:href="#glyph1-3"
         x="91.13742"
         y="92.66868"
         id="use1516" />
    </g>
    <g
       style="fill:#ff0000;fill-opacity:1"
       id="g1522">
      <use
         xlink:href="#glyph4-1"
         x="95.48802"
         y="92.66868"
         id="use1520" />
    </g>
    <path
       style="fill:none;stroke-width:0.4782;stroke-linecap:butt;stroke-linejoin:round;stroke:#ff0000;stroke-opacity:1;stroke-miterlimit:10"
       d="M -164.230701 160.980661 L -155.02367 160.980661 "
       transform="matrix(1,0,0,-1,255.36742,255.36738)"
       id="path1524" />
    <g
       style="fill:#ff0000;fill-opacity:1"
       id="g1528">
      <use
         xlink:href="#glyph1-6"
         x="93.47462"
         y="101.49838"
         id="use1526" />
    </g>
    <g
       style="fill:#000000;fill-opacity:1"
       id="g1532">
      <use
         xlink:href="#glyph3-1"
         x="31.98792"
         y="264.35648"
         id="use1530" />
    </g>
    <path
       style="fill:none;stroke-width:3;stroke-linecap:round;stroke-linejoin:round;stroke:#000000;stroke-opacity:1;stroke-miterlimit:10"
       d="M -212.597889 0.0001925 L -212.597889 0.0001925 "
       transform="matrix(1,0,0,-1,255.36742,255.36738)"
       id="path1534" />
    <g
       style="fill:#ff0000;fill-opacity:1"
       id="g1538">
      <use
         xlink:href="#glyph2-1"
         x="80.90112"
         y="419.42658"
         id="use1536" />
    </g>
    <g
       style="fill:#ff0000;fill-opacity:1"
       id="g1542">
      <use
         xlink:href="#glyph1-3"
         x="91.13742"
         y="414.71948"
         id="use1540" />
    </g>
    <g
       style="fill:#ff0000;fill-opacity:1"
       id="g1546">
      <use
         xlink:href="#glyph4-1"
         x="95.48802"
         y="414.71948"
         id="use1544" />
    </g>
    <path
       style="fill:none;stroke-width:0.4782;stroke-linecap:butt;stroke-linejoin:round;stroke:#ff0000;stroke-opacity:1;stroke-miterlimit:10"
       d="M -164.230701 -161.07012 L -155.02367 -161.07012 "
       transform="matrix(1,0,0,-1,255.36742,255.36738)"
       id="path1548" />
    <g
       style="fill:#ff0000;fill-opacity:1"
       id="g1552">
      <use
         xlink:href="#glyph1-6"
         x="93.47462"
         y="423.54918"
         id="use1550" />
    </g>
    <g
       style="fill:#000000;fill-opacity:1"
       id="g1556">
      <use
         xlink:href="#glyph2-1"
         x="235.58152"
         y="479.83228"
         id="use1554" />
    </g>
    <g
       style="fill:#000000;fill-opacity:1"
       id="g1560">
      <use
         xlink:href="#glyph4-1"
         x="245.81782"
         y="475.12518"
         id="use1558" />
    </g>
    <path
       style="fill:none;stroke-width:0.4782;stroke-linecap:butt;stroke-linejoin:round;stroke:#000000;stroke-opacity:1;stroke-miterlimit:10"
       d="M -9.551014 -221.47637 L -4.695545 -221.47637 "
       transform="matrix(1,0,0,-1,255.36742,255.36738)"
       id="path1562" />
    <g
       style="fill:#000000;fill-opacity:1"
       id="g1566">
      <use
         xlink:href="#glyph1-2"
         x="246.19062"
         y="483.95488"
         id="use1564" />
    </g>
    <g
       style="fill:#ff0000;fill-opacity:1"
       id="g1570">
      <use
         xlink:href="#glyph2-1"
         x="409.19732"
         y="417.56378"
         id="use1568" />
    </g>
    <g
       style="fill:#ff0000;fill-opacity:1"
       id="g1574">
      <use
         xlink:href="#glyph4-1"
         x="419.43362"
         y="412.85668"
         id="use1572" />
    </g>
    <path
       style="fill:none;stroke-width:0.4782;stroke-linecap:butt;stroke-linejoin:round;stroke:#ff0000;stroke-opacity:1;stroke-miterlimit:10"
       d="M 164.066174 -159.206839 L 168.921642 -159.206839 "
       transform="matrix(1,0,0,-1,255.36742,255.36738)"
       id="path1576" />
    <g
       style="fill:#ff0000;fill-opacity:1"
       id="g1580">
      <use
         xlink:href="#glyph1-6"
         x="419.59562"
         y="421.68638"
         id="use1578" />
    </g>
    <g
       style="fill:#ff0000;fill-opacity:1"
       id="g1584">
      <use
         xlink:href="#glyph5-1"
         x="389.83642"
         y="236.24668"
         id="use1582" />
    </g>
    <path
       style="fill:none;stroke-width:0.3587;stroke-linecap:butt;stroke-linejoin:round;stroke:#ff0000;stroke-opacity:1;stroke-miterlimit:10"
       d="M 141.527111 19.300974 L 145.63258 19.300974 "
       transform="matrix(1,0,0,-1,255.36742,255.36738)"
       id="path1586" />
    <g
       style="fill:#ff0000;fill-opacity:1"
       id="g1590">
      <use
         xlink:href="#glyph1-2"
         x="396.89342"
         y="243.03768"
         id="use1588" />
    </g>
    <path
       style="fill:none;stroke-width:0.4782;stroke-linecap:butt;stroke-linejoin:round;stroke:#ff0000;stroke-opacity:1;stroke-miterlimit:10"
       d="M 134.468517 10.609567 L 145.63258 10.609567 "
       transform="matrix(1,0,0,-1,255.36742,255.36738)"
       id="path1592" />
    <g
       style="fill:#ff0000;fill-opacity:1"
       id="g1596">
      <use
         xlink:href="#glyph1-2"
         x="393.36492"
         y="251.86738"
         id="use1594" />
    </g>
    <g
       style="fill:#ff0000;fill-opacity:1"
       id="g1600">
      <use
         xlink:href="#glyph2-1"
         x="108.53752"
         y="247.74478"
         id="use1598" />
    </g>
    <g
       style="fill:#ff0000;fill-opacity:1"
       id="g1604">
      <use
         xlink:href="#glyph5-1"
         x="118.77382"
         y="236.24668"
         id="use1602" />
    </g>
    <path
       style="fill:none;stroke-width:0.3587;stroke-linecap:butt;stroke-linejoin:round;stroke:#ff0000;stroke-opacity:1;stroke-miterlimit:10"
       d="M -129.535389 19.300974 L -125.42992 19.300974 "
       transform="matrix(1,0,0,-1,255.36742,255.36738)"
       id="path1606" />
    <g
       style="fill:#ff0000;fill-opacity:1"
       id="g1610">
      <use
         xlink:href="#glyph1-2"
         x="125.83082"
         y="243.03768"
         id="use1608" />
    </g>
    <path
       style="fill:none;stroke-width:0.4782;stroke-linecap:butt;stroke-linejoin:round;stroke:#ff0000;stroke-opacity:1;stroke-miterlimit:10"
       d="M -136.593983 10.609567 L -125.42992 10.609567 "
       transform="matrix(1,0,0,-1,255.36742,255.36738)"
       id="path1612" />
    <g
       style="fill:#ff0000;fill-opacity:1"
       id="g1616">
      <use
         xlink:href="#glyph1-2"
         x="122.30232"
         y="251.86738"
         id="use1614" />
    </g>
    <g
       style="fill:#ff0000;fill-opacity:1"
       id="g1620">
      <use
         xlink:href="#glyph5-1"
         x="260.06292"
         y="109.25478"
         id="use1618" />
    </g>
    <path
       style="fill:none;stroke-width:0.3587;stroke-linecap:butt;stroke-linejoin:round;stroke:#ff0000;stroke-opacity:1;stroke-miterlimit:10"
       d="M 11.753674 146.293161 L 15.859142 146.293161 "
       transform="matrix(1,0,0,-1,255.36742,255.36738)"
       id="path1622" />
    <g
       style="fill:#ff0000;fill-opacity:1"
       id="g1626">
      <use
         xlink:href="#glyph1-2"
         x="267.11992"
         y="116.04578"
         id="use1624" />
    </g>
    <path
       style="fill:none;stroke-width:0.4782;stroke-linecap:butt;stroke-linejoin:round;stroke:#ff0000;stroke-opacity:1;stroke-miterlimit:10"
       d="M 4.69508 137.601755 L 15.859142 137.601755 "
       transform="matrix(1,0,0,-1,255.36742,255.36738)"
       id="path1628" />
    <g
       style="fill:#ff0000;fill-opacity:1"
       id="g1632">
      <use
         xlink:href="#glyph1-2"
         x="263.59142"
         y="124.87548"
         id="use1630" />
    </g>
    <g
       style="fill:#ff0000;fill-opacity:1"
       id="g1636">
      <use
         xlink:href="#glyph2-1"
         x="258.86742"
         y="398.07468"
         id="use1634" />
    </g>
    <g
       style="fill:#ff0000;fill-opacity:1"
       id="g1640">
      <use
         xlink:href="#glyph5-1"
         x="269.10372"
         y="386.57658"
         id="use1638" />
    </g>
    <path
       style="fill:none;stroke-width:0.3587;stroke-linecap:butt;stroke-linejoin:round;stroke:#ff0000;stroke-opacity:1;stroke-miterlimit:10"
       d="M 20.792736 -131.031058 L 24.902111 -131.031058 "
       transform="matrix(1,0,0,-1,255.36742,255.36738)"
       id="path1642" />
    <g
       style="fill:#ff0000;fill-opacity:1"
       id="g1646">
      <use
         xlink:href="#glyph1-2"
         x="276.16072"
         y="393.36758"
         id="use1644" />
    </g>
    <path
       style="fill:none;stroke-width:0.4782;stroke-linecap:butt;stroke-linejoin:round;stroke:#ff0000;stroke-opacity:1;stroke-miterlimit:10"
       d="M 13.738049 -139.718558 L 24.902111 -139.718558 "
       transform="matrix(1,0,0,-1,255.36742,255.36738)"
       id="path1648" />
    <g
       style="fill:#ff0000;fill-opacity:1"
       id="g1652">
      <use
         xlink:href="#glyph1-2"
         x="272.63222"
         y="402.19728"
         id="use1650" />
    </g>
  </g>
</svg>
