<?xml version="1.0" encoding="UTF-8" standalone="no"?>
<svg
   xmlns:dc="http://purl.org/dc/elements/1.1/"
   xmlns:cc="http://creativecommons.org/ns#"
   xmlns:rdf="http://www.w3.org/1999/02/22-rdf-syntax-ns#"
   xmlns:svg="http://www.w3.org/2000/svg"
   xmlns="http://www.w3.org/2000/svg"
   xmlns:xlink="http://www.w3.org/1999/xlink"
   xmlns:sodipodi="http://sodipodi.sourceforge.net/DTD/sodipodi-0.dtd"
   xmlns:inkscape="http://www.inkscape.org/namespaces/inkscape"
   width="374.6722pt"
   height="374.6722pt"
   viewBox="0 0 374.6722 374.6722"
   version="1.1"
   id="svg844"
   sodipodi:docname="trigo-2.pdf_b.svg"
   inkscape:version="1.0.1 (3bc2e813f5, 2020-09-07)">
  <metadata
     id="metadata848">
    <rdf:RDF>
      <cc:Work
         rdf:about="">
        <dc:format>image/svg+xml</dc:format>
        <dc:type
           rdf:resource="http://purl.org/dc/dcmitype/StillImage" />
        <dc:title></dc:title>
      </cc:Work>
    </rdf:RDF>
  </metadata>
  <sodipodi:namedview
     pagecolor="#ffffff"
     bordercolor="#666666"
     borderopacity="1"
     objecttolerance="10"
     gridtolerance="10"
     guidetolerance="10"
     inkscape:pageopacity="0"
     inkscape:pageshadow="2"
     inkscape:window-width="1918"
     inkscape:window-height="1044"
     id="namedview846"
     showgrid="false"
     inkscape:zoom="1.1530078"
     inkscape:cx="73.720227"
     inkscape:cy="249.78147"
     inkscape:window-x="0"
     inkscape:window-y="34"
     inkscape:window-maximized="0"
     inkscape:current-layer="svg844"
     inkscape:document-rotation="0" />
  <defs
     id="defs663">
    <g
       id="g649">
      <symbol
         overflow="visible"
         id="glyph0-0">
        <path
           style="stroke:none"
           d=""
           id="path613" />
      </symbol>
      <symbol
         overflow="visible"
         id="glyph0-1">
        <path
           style="stroke:none"
           d="M 1.484375 -3.671875 C 1.015625 -3.671875 0.53125 -3.65625 0.390625 -3.203125 L 0.171875 -2.296875 L 0.328125 -2.21875 L 0.484375 -2.59375 C 0.65625 -3.0625 0.875 -3.140625 1.265625 -3.140625 L 1.84375 -3.140625 C 1.65625 -2.25 1.21875 -1.109375 0.6875 -0.1875 L 0.6875 -0.078125 L 1.125 0.046875 L 1.21875 -0.046875 C 1.5625 -1.0625 1.921875 -2.109375 2.140625 -3.140625 L 3.28125 -3.140625 L 3.328125 -3.09375 C 3.25 -2.453125 3.203125 -1.8125 3.203125 -1.171875 C 3.203125 -0.8125 3.21875 -0.3125 3.453125 -0.09375 C 3.546875 0 3.71875 0 3.875 0 C 4.203125 0 4.53125 -0.25 4.765625 -0.484375 L 4.6875 -0.609375 L 4.640625 -0.625 C 4.53125 -0.546875 4.40625 -0.5 4.25 -0.5 C 3.734375 -0.5 3.75 -1.53125 3.75 -2.25 C 3.75 -2.515625 3.78125 -2.8125 3.796875 -3.078125 L 3.859375 -3.140625 C 4.15625 -3.140625 4.453125 -3.234375 4.71875 -3.359375 L 5 -3.828125 L 4.9375 -3.890625 C 4.671875 -3.75 4.359375 -3.671875 4.0625 -3.671875 Z M 1.484375 -3.671875 "
           id="path616" />
      </symbol>
      <symbol
         overflow="visible"
         id="glyph1-0">
        <path
           style="stroke:none"
           d=""
           id="path619" />
      </symbol>
      <symbol
         overflow="visible"
         id="glyph1-1">
        <path
           style="stroke:none"
           d="M 4.09375 -1.5625 C 4.140625 -2.296875 3.640625 -3.3125 2.578125 -3.359375 C 1.84375 -3.390625 1.328125 -2.96875 1.15625 -2.59375 C 1.078125 -3.359375 1.390625 -5.140625 2.390625 -5.234375 C 3.3125 -5.3125 3.421875 -4.484375 3.109375 -4.015625 C 3.109375 -4.015625 3.984375 -3.65625 4 -4.5 C 4 -5.015625 3.40625 -5.53125 2.390625 -5.484375 C 1.5 -5.4375 0.359375 -4.71875 0.359375 -2.390625 C 0.34375 -0.90625 1.140625 0.09375 2.15625 0.140625 C 3.21875 0.1875 4 -0.515625 4.09375 -1.5625 Z M 3.28125 -1.453125 C 3.203125 -0.765625 2.859375 -0.015625 2.171875 -0.046875 C 2.171875 -0.046875 1.15625 -0.140625 1.15625 -2.265625 C 1.296875 -2.609375 1.84375 -3.078125 2.34375 -3.046875 C 3.265625 -3 3.359375 -2.078125 3.28125 -1.453125 Z M 3.28125 -1.453125 "
           id="path622" />
      </symbol>
      <symbol
         overflow="visible"
         id="glyph1-2">
        <path
           style="stroke:none"
           d="M 3.765625 -4.0625 C 3.796875 -5.359375 2.6875 -5.53125 1.96875 -5.53125 C 0.90625 -5.5 0.375 -5.125 0.3125 -4.484375 C 0.21875 -3.53125 1.15625 -3.609375 1.359375 -3.796875 C 0.9375 -4.09375 0.984375 -5.1875 1.9375 -5.28125 C 2.765625 -5.34375 3.015625 -4.640625 2.9375 -4.140625 C 2.84375 -3.53125 2.390625 -2.625 1.65625 -1.859375 L 0.390625 -0.53125 L 0.390625 0 L 3.546875 0 C 3.515625 -0.3125 3.75 -1.4375 3.75 -1.4375 L 3.5 -1.4375 C 3.4375 -1.1875 3.3125 -0.71875 2.875 -0.671875 C 2.34375 -0.640625 0.8125 -0.625 0.8125 -0.625 L 2.5 -2.078125 C 2.828125 -2.375 3.734375 -3.28125 3.765625 -4.0625 Z M 3.765625 -4.0625 "
           id="path625" />
      </symbol>
      <symbol
         overflow="visible"
         id="glyph1-3">
        <path
           style="stroke:none"
           d="M 3.875 -1.78125 C 3.90625 -2.453125 3.734375 -2.8125 3.359375 -3.203125 C 2.6875 -3.953125 1.53125 -3.859375 0.921875 -3.390625 L 0.921875 -4.71875 L 3.25 -4.71875 C 3.25 -4.71875 3.296875 -4.953125 3.328125 -5.09375 C 3.359375 -5.234375 3.4375 -5.46875 3.4375 -5.46875 C 3.4375 -5.46875 2.5625 -5.390625 2 -5.390625 C 1.109375 -5.390625 0.515625 -5.453125 0.515625 -5.453125 C 0.515625 -5.453125 0.71875 -4.0625 0.546875 -2.90625 C 0.921875 -3.21875 1.65625 -3.515625 2.203125 -3.28125 C 2.6875 -3.078125 3.046875 -2.453125 3.0625 -1.703125 C 3.109375 -1.015625 2.734375 -0.125 1.890625 -0.109375 C 1.078125 -0.109375 0.796875 -0.96875 1.140625 -1.421875 C 1.046875 -1.578125 0.25 -1.8125 0.25 -0.875 C 0.234375 -0.234375 1.015625 0.109375 1.890625 0.109375 C 2.71875 0.109375 3.84375 -0.390625 3.875 -1.78125 Z M 3.875 -1.78125 "
           id="path628" />
      </symbol>
      <symbol
         overflow="visible"
         id="glyph1-4">
        <path
           style="stroke:none"
           d="M 4.03125 -1.359375 C 4.109375 -2.640625 2.796875 -2.890625 2.171875 -2.90625 C 2.8125 -2.953125 3.828125 -3.4375 3.828125 -4.140625 C 3.828125 -5.171875 2.828125 -5.53125 2.09375 -5.53125 C 1.203125 -5.515625 0.546875 -5.125 0.5 -4.546875 C 0.4375 -3.75 1.1875 -3.921875 1.40625 -4.0625 C 1.03125 -4.53125 1.28125 -5.296875 2.109375 -5.265625 C 2.859375 -5.234375 3.046875 -4.59375 3.046875 -4.1875 C 3.046875 -3.4375 2.46875 -3.015625 1.46875 -3.09375 C 1.484375 -2.96875 1.5 -2.78125 1.4375 -2.65625 C 1.96875 -2.75 2.46875 -2.6875 2.75 -2.515625 C 3.09375 -2.28125 3.234375 -1.71875 3.1875 -1.3125 C 3.15625 -0.921875 2.9375 -0.140625 2.109375 -0.140625 C 1.328125 -0.140625 0.96875 -0.953125 1.3125 -1.390625 C 1.046875 -1.6875 0.34375 -1.625 0.390625 -0.90625 C 0.40625 -0.34375 1.046875 0.109375 2.09375 0.109375 C 2.90625 0.109375 3.984375 -0.375 4.03125 -1.359375 Z M 4.03125 -1.359375 "
           id="path631" />
      </symbol>
      <symbol
         overflow="visible"
         id="glyph1-5">
        <path
           style="stroke:none"
           d="M 2.890625 0.015625 L 2.890625 -0.234375 C 2.59375 -0.234375 2.328125 -0.3125 2.15625 -0.53125 C 1.984375 -0.71875 2.03125 -2.046875 2.046875 -3.0625 C 2.046875 -4.0625 2.09375 -5.625 2.09375 -5.625 C 1.796875 -5.421875 0.734375 -4.828125 0.4375 -4.703125 L 0.4375 -4.46875 L 1.296875 -4.734375 C 1.296875 -4.734375 1.3125 -3.453125 1.3125 -2.640625 C 1.3125 -1.8125 1.34375 -0.71875 1.1875 -0.53125 C 1 -0.3125 0.75 -0.234375 0.453125 -0.234375 L 0.453125 -0.015625 C 0.5625 -0.046875 1.53125 -0.078125 1.625 -0.078125 C 1.75 -0.078125 2.78125 -0.046875 2.890625 0.015625 Z M 2.890625 0.015625 "
           id="path634" />
      </symbol>
      <symbol
         overflow="visible"
         id="glyph2-0">
        <path
           style="stroke:none"
           d=""
           id="path637" />
      </symbol>
      <symbol
         overflow="visible"
         id="glyph2-1">
        <path
           style="stroke:none"
           d="M 8.421875 -2.828125 L 8.484375 -3.296875 L 0.640625 -3.296875 L 0.546875 -2.828125 Z M 8.421875 -2.828125 "
           id="path640" />
      </symbol>
      <symbol
         overflow="visible"
         id="glyph3-0">
        <path
           style="stroke:none"
           d=""
           id="path643" />
      </symbol>
      <symbol
         overflow="visible"
         id="glyph3-1">
        <path
           style="stroke:none"
           d="M 3.28125 6.734375 L 1.78125 3.640625 C 1.734375 3.546875 1.703125 3.515625 1.640625 3.515625 C 1.609375 3.515625 1.59375 3.515625 1.515625 3.578125 L 0.703125 4.140625 C 0.59375 4.21875 0.59375 4.25 0.59375 4.28125 C 0.59375 4.328125 0.625 4.390625 0.703125 4.390625 C 0.734375 4.390625 0.75 4.390625 0.84375 4.3125 C 0.953125 4.25 1.109375 4.125 1.25 4.03125 L 2.921875 7.46875 C 2.984375 7.609375 3.015625 7.609375 3.09375 7.609375 C 3.234375 7.609375 3.265625 7.5625 3.328125 7.4375 L 7.171875 -0.03125 C 7.234375 -0.140625 7.234375 -0.15625 7.234375 -0.1875 C 7.234375 -0.28125 7.15625 -0.359375 7.046875 -0.359375 C 6.953125 -0.359375 6.921875 -0.296875 6.859375 -0.203125 Z M 3.28125 6.734375 "
           id="path646" />
      </symbol>
    </g>
    <clipPath
       id="clip1">
      <path
         d="M 0 187 L 374.671875 187 L 374.671875 188 L 0 188 Z M 0 187 "
         id="path651" />
    </clipPath>
    <clipPath
       id="clip2">
      <path
         d="M 370 185 L 374.671875 185 L 374.671875 189 L 370 189 Z M 370 185 "
         id="path654" />
    </clipPath>
    <clipPath
       id="clip3">
      <path
         d="M 370 185 L 374.671875 185 L 374.671875 190 L 370 190 Z M 370 185 "
         id="path657" />
    </clipPath>
    <clipPath
       id="clip4">
      <path
         d="M 187 0 L 188 0 L 188 374.671875 L 187 374.671875 Z M 187 0 "
         id="path660" />
    </clipPath>
  </defs>
  <g
     id="surface1">
    <g
       clip-path="url(#clip1)"
       clip-rule="nonzero"
       id="g667">
      <path
         style="fill:none;stroke-width:0.5;stroke-linecap:round;stroke-linejoin:round;stroke:#000000;stroke-opacity:1;stroke-miterlimit:10"
         d="M -187.0861 0.0001625 L 187.085775 0.0001625 "
         transform="matrix(1,0,0,-1,187.3361,187.3361)"
         id="path665" />
    </g>
    <g
       clip-path="url(#clip2)"
       clip-rule="nonzero"
       id="g671">
      <path
         style="stroke:none;fill-rule:nonzero;fill:#000000;fill-opacity:1"
         d="M 370.722656 188.867188 L 374.421875 187.335938 L 370.722656 185.804688 Z M 370.722656 188.867188 "
         id="path669" />
    </g>
    <g
       clip-path="url(#clip3)"
       clip-rule="nonzero"
       id="g675">
      <path
         style="fill:none;stroke-width:0.5;stroke-linecap:round;stroke-linejoin:round;stroke:#000000;stroke-opacity:1;stroke-miterlimit:10"
         d="M 183.386556 -1.531087 L 187.085775 0.0001625 L 183.386556 1.531413 Z M 183.386556 -1.531087 "
         transform="matrix(1,0,0,-1,187.3361,187.3361)"
         id="path673" />
    </g>
    <g
       clip-path="url(#clip4)"
       clip-rule="nonzero"
       id="g679">
      <path
         style="fill:none;stroke-width:0.5;stroke-linecap:round;stroke-linejoin:round;stroke:#000000;stroke-opacity:1;stroke-miterlimit:10"
         d="M -0.0001625 -187.085775 L -0.0001625 187.0861 "
         transform="matrix(1,0,0,-1,187.3361,187.3361)"
         id="path677" />
    </g>
    <path
       style="fill-rule:nonzero;fill:#000000;fill-opacity:1;stroke-width:0.5;stroke-linecap:round;stroke-linejoin:round;stroke:#000000;stroke-opacity:1;stroke-miterlimit:10"
       d="M 1.531087 183.386881 L -0.0001625 187.0861 L -1.531413 183.386881 Z M 1.531087 183.386881 "
       transform="matrix(1,0,0,-1,187.3361,187.3361)"
       id="path681" />
    <path
       style="fill:none;stroke-width:1.3;stroke-linecap:round;stroke-linejoin:round;stroke:#004d4d;stroke-opacity:1;stroke-miterlimit:10"
       d="M 127.558431 0.0001625 C 127.558431 33.832194 114.117025 66.2736 90.19515 90.195475 C 66.273275 114.11735 33.831869 127.558756 -0.0001625 127.558756 C -33.832194 127.558756 -66.2736 114.11735 -90.195475 90.195475 C -114.11735 66.2736 -127.558756 33.832194 -127.558756 0.0001625 C -127.558756 -33.831869 -114.11735 -66.273275 -90.195475 -90.19515 C -66.2736 -114.117025 -33.832194 -127.558431 -0.0001625 -127.558431 C 33.831869 -127.558431 66.273275 -114.117025 90.19515 -90.19515 C 114.117025 -66.273275 127.558431 -33.831869 127.558431 0.0001625 Z M 127.558431 0.0001625 "
       transform="matrix(1,0,0,-1,187.3361,187.3361)"
       id="path683" />
    <path
       style="fill:none;stroke-width:0.5;stroke-linecap:round;stroke-linejoin:round;stroke:#0080ff;stroke-opacity:1;stroke-dasharray:3,3;stroke-miterlimit:10"
       d="M -0.0001625 155.906413 L 135.019369 77.953288 L -0.0001625 0.0001625 "
       transform="matrix(1,0,0,-1,187.3361,187.3361)"
       id="path685" />
    <path
       style="fill:none;stroke-width:0.5;stroke-linecap:round;stroke-linejoin:round;stroke:#0080ff;stroke-opacity:1;stroke-dasharray:3,3;stroke-miterlimit:10"
       d="M -135.019694 77.953288 L -0.0001625 155.906413 L -0.0001625 0.0001625 "
       transform="matrix(1,0,0,-1,187.3361,187.3361)"
       id="path687" />
    <path
       style="fill:none;stroke-width:0.5;stroke-linecap:round;stroke-linejoin:round;stroke:#0080ff;stroke-opacity:1;stroke-dasharray:3,3;stroke-miterlimit:10"
       d="M -135.019694 -77.952962 L -135.019694 77.953288 L -0.0001625 0.0001625 "
       transform="matrix(1,0,0,-1,187.3361,187.3361)"
       id="path689" />
    <path
       style="fill:none;stroke-width:0.5;stroke-linecap:round;stroke-linejoin:round;stroke:#0080ff;stroke-opacity:1;stroke-dasharray:3,3;stroke-miterlimit:10"
       d="M -0.0001625 -155.906087 L -135.019694 -77.952962 L -0.0001625 0.0001625 "
       transform="matrix(1,0,0,-1,187.3361,187.3361)"
       id="path691" />
    <path
       style="fill:none;stroke-width:0.5;stroke-linecap:round;stroke-linejoin:round;stroke:#0080ff;stroke-opacity:1;stroke-dasharray:3,3;stroke-miterlimit:10"
       d="M 135.019369 -77.952962 L -0.0001625 -155.906087 L -0.0001625 0.0001625 "
       transform="matrix(1,0,0,-1,187.3361,187.3361)"
       id="path693" />
    <path
       style="fill:none;stroke-width:0.5;stroke-linecap:round;stroke-linejoin:round;stroke:#0080ff;stroke-opacity:1;stroke-dasharray:3,3;stroke-miterlimit:10"
       d="M 135.019369 77.953288 L 135.019369 -77.952962 L -0.0001625 0.0001625 "
       transform="matrix(1,0,0,-1,187.3361,187.3361)"
       id="path695" />
    <path
       style="fill:none;stroke-width:0.5;stroke-linecap:round;stroke-linejoin:round;stroke:#0080ff;stroke-opacity:1;stroke-dasharray:3,3;stroke-miterlimit:10"
       d="M -135.019694 77.953288 L 135.019369 77.953288 "
       transform="matrix(1,0,0,-1,187.3361,187.3361)"
       id="path697" />
    <path
       style="fill:none;stroke-width:0.5;stroke-linecap:round;stroke-linejoin:round;stroke:#0080ff;stroke-opacity:1;stroke-dasharray:3,3;stroke-miterlimit:10"
       d="M -135.019694 -77.952962 L 135.019369 -77.952962 "
       transform="matrix(1,0,0,-1,187.3361,187.3361)"
       id="path699" />
    <g
       style="fill:#0080ff;fill-opacity:1"
       id="g703">
      <use
         xlink:href="#glyph0-1"
         x="327.0501"
         y="96.8857"
         id="use701" />
    </g>
    <path
       style="fill:none;stroke-width:0.4782;stroke-linecap:butt;stroke-linejoin:round;stroke:#0080ff;stroke-opacity:1;stroke-miterlimit:10"
       d="M 139.714681 88.730631 L 144.566244 88.730631 "
       transform="matrix(1,0,0,-1,187.3361,187.3361)"
       id="path705" />
    <g
       style="fill:#0080ff;fill-opacity:1"
       id="g709">
      <use
         xlink:href="#glyph1-1"
         x="327.2784"
         y="105.7154"
         id="use707" />
    </g>
    <g
       style="fill:#000000;fill-opacity:1"
       id="g713">
      <use
         xlink:href="#glyph0-1"
         x="192.0316"
         y="19.1002"
         id="use711" />
    </g>
    <path
       style="fill:none;stroke-width:0.4782;stroke-linecap:butt;stroke-linejoin:round;stroke:#000000;stroke-opacity:1;stroke-miterlimit:10"
       d="M 4.69515 166.515788 L 9.550619 166.515788 "
       transform="matrix(1,0,0,-1,187.3361,187.3361)"
       id="path715" />
    <g
       style="fill:#000000;fill-opacity:1"
       id="g719">
      <use
         xlink:href="#glyph1-2"
         x="192.4044"
         y="27.93"
         id="use717" />
    </g>
    <path
       style="fill:none;stroke-width:3;stroke-linecap:round;stroke-linejoin:round;stroke:#000000;stroke-opacity:1;stroke-miterlimit:10"
       d="M -0.0001625 155.906413 L -0.0001625 155.906413 "
       transform="matrix(1,0,0,-1,187.3361,187.3361)"
       id="path721" />
    <g
       style="fill:#0080ff;fill-opacity:1"
       id="g725">
      <use
         xlink:href="#glyph1-3"
         x="38.5112"
         y="96.885"
         id="use723" />
    </g>
    <g
       style="fill:#0080ff;fill-opacity:1"
       id="g729">
      <use
         xlink:href="#glyph0-1"
         x="42.768"
         y="96.885"
         id="use727" />
    </g>
    <path
       style="fill:none;stroke-width:0.4782;stroke-linecap:butt;stroke-linejoin:round;stroke:#0080ff;stroke-opacity:1;stroke-miterlimit:10"
       d="M -148.824381 88.734538 L -139.715006 88.734538 "
       transform="matrix(1,0,0,-1,187.3361,187.3361)"
       id="path731" />
    <g
       style="fill:#0080ff;fill-opacity:1"
       id="g735">
      <use
         xlink:href="#glyph1-1"
         x="40.8679"
         y="105.7147"
         id="use733" />
    </g>
    <g
       style="fill:#0080ff;fill-opacity:1"
       id="g739">
      <use
         xlink:href="#glyph2-1"
         x="28.2749"
         y="279.0181"
         id="use737" />
    </g>
    <g
       style="fill:#0080ff;fill-opacity:1"
       id="g743">
      <use
         xlink:href="#glyph1-3"
         x="38.5112"
         y="274.311"
         id="use741" />
    </g>
    <g
       style="fill:#0080ff;fill-opacity:1"
       id="g747">
      <use
         xlink:href="#glyph0-1"
         x="42.768"
         y="274.311"
         id="use745" />
    </g>
    <path
       style="fill:none;stroke-width:0.4782;stroke-linecap:butt;stroke-linejoin:round;stroke:#0080ff;stroke-opacity:1;stroke-miterlimit:10"
       d="M -148.824381 -88.69515 L -139.715006 -88.69515 "
       transform="matrix(1,0,0,-1,187.3361,187.3361)"
       id="path749" />
    <g
       style="fill:#0080ff;fill-opacity:1"
       id="g753">
      <use
         xlink:href="#glyph1-1"
         x="40.868"
         y="283.1407"
         id="use751" />
    </g>
    <g
       style="fill:#0080ff;fill-opacity:1"
       id="g757">
      <use
         xlink:href="#glyph2-1"
         x="167.5502"
         y="355.1087"
         id="use755" />
    </g>
    <g
       style="fill:#0080ff;fill-opacity:1"
       id="g761">
      <use
         xlink:href="#glyph0-1"
         x="177.7865"
         y="350.4016"
         id="use759" />
    </g>
    <path
       style="fill:none;stroke-width:0.4782;stroke-linecap:butt;stroke-linejoin:round;stroke:#0080ff;stroke-opacity:1;stroke-miterlimit:10"
       d="M -9.550944 -164.784994 L -4.695475 -164.784994 "
       transform="matrix(1,0,0,-1,187.3361,187.3361)"
       id="path763" />
    <g
       style="fill:#0080ff;fill-opacity:1"
       id="g767">
      <use
         xlink:href="#glyph1-2"
         x="178.1593"
         y="359.2313"
         id="use765" />
    </g>
    <g
       style="fill:#0080ff;fill-opacity:1"
       id="g771">
      <use
         xlink:href="#glyph2-1"
         x="325.8546"
         y="277.156"
         id="use769" />
    </g>
    <g
       style="fill:#0080ff;fill-opacity:1"
       id="g775">
      <use
         xlink:href="#glyph0-1"
         x="336.0909"
         y="272.4489"
         id="use773" />
    </g>
    <path
       style="fill:none;stroke-width:0.4782;stroke-linecap:butt;stroke-linejoin:round;stroke:#0080ff;stroke-opacity:1;stroke-miterlimit:10"
       d="M 148.753744 -86.831869 L 153.609212 -86.831869 "
       transform="matrix(1,0,0,-1,187.3361,187.3361)"
       id="path777" />
    <g
       style="fill:#0080ff;fill-opacity:1"
       id="g781">
      <use
         xlink:href="#glyph1-1"
         x="336.3192"
         y="281.2786"
         id="use779" />
    </g>
    <g
       style="fill:#0080ff;fill-opacity:1"
       id="g785">
      <use
         xlink:href="#glyph3-1"
         x="306.2516"
         y="191.5534"
         id="use783" />
    </g>
    <path
       style="fill:none;stroke-width:0.3587;stroke-linecap:butt;stroke-linejoin:round;stroke:#0080ff;stroke-opacity:1;stroke-miterlimit:10"
       d="M 125.972494 -4.0389 L 130.324056 -4.0389 "
       transform="matrix(1,0,0,-1,187.3361,187.3361)"
       id="path787" />
    <g
       style="fill:#0080ff;fill-opacity:1"
       id="g791">
      <use
         xlink:href="#glyph1-4"
         x="313.3086"
         y="198.2897"
         id="use789" />
    </g>
    <path
       style="fill:none;stroke-width:0.4782;stroke-linecap:butt;stroke-linejoin:round;stroke:#0080ff;stroke-opacity:1;stroke-miterlimit:10"
       d="M 118.9139 -12.671712 L 130.324056 -12.671712 "
       transform="matrix(1,0,0,-1,187.3361,187.3361)"
       id="path793" />
    <g
       style="fill:#0080ff;fill-opacity:1"
       id="g797">
      <use
         xlink:href="#glyph1-2"
         x="309.9012"
         y="207.1194"
         id="use795" />
    </g>
    <g
       style="fill:#0080ff;fill-opacity:1"
       id="g801">
      <use
         xlink:href="#glyph2-1"
         x="55.8176"
         y="202.9968"
         id="use799" />
    </g>
    <g
       style="fill:#0080ff;fill-opacity:1"
       id="g805">
      <use
         xlink:href="#glyph3-1"
         x="66.0539"
         y="191.5534"
         id="use803" />
    </g>
    <path
       style="fill:none;stroke-width:0.3587;stroke-linecap:butt;stroke-linejoin:round;stroke:#0080ff;stroke-opacity:1;stroke-miterlimit:10"
       d="M -114.226725 -4.0389 L -109.875163 -4.0389 "
       transform="matrix(1,0,0,-1,187.3361,187.3361)"
       id="path807" />
    <g
       style="fill:#0080ff;fill-opacity:1"
       id="g811">
      <use
         xlink:href="#glyph1-4"
         x="73.1109"
         y="198.2897"
         id="use809" />
    </g>
    <path
       style="fill:none;stroke-width:0.4782;stroke-linecap:butt;stroke-linejoin:round;stroke:#0080ff;stroke-opacity:1;stroke-miterlimit:10"
       d="M -121.281413 -12.671712 L -109.875163 -12.671712 "
       transform="matrix(1,0,0,-1,187.3361,187.3361)"
       id="path813" />
    <g
       style="fill:#0080ff;fill-opacity:1"
       id="g817">
      <use
         xlink:href="#glyph1-2"
         x="69.7035"
         y="207.1194"
         id="use815" />
    </g>
    <g
       style="fill:#0080ff;fill-opacity:1"
       id="g821">
      <use
         xlink:href="#glyph1-5"
         x="179.0282"
         y="118.4055"
         id="use819" />
    </g>
    <path
       style="fill:none;stroke-width:0.4782;stroke-linecap:butt;stroke-linejoin:round;stroke:#0080ff;stroke-opacity:1;stroke-miterlimit:10"
       d="M -8.80485 67.2111 L -4.695475 67.2111 "
       transform="matrix(1,0,0,-1,187.3361,187.3361)"
       id="path823" />
    <g
       style="fill:#0080ff;fill-opacity:1"
       id="g827">
      <use
         xlink:href="#glyph1-2"
         x="178.5322"
         y="127.2352"
         id="use825" />
    </g>
    <g
       style="fill:#0080ff;fill-opacity:1"
       id="g831">
      <use
         xlink:href="#glyph2-1"
         x="168.2959"
         y="279.0181"
         id="use829" />
    </g>
    <g
       style="fill:#0080ff;fill-opacity:1"
       id="g835">
      <use
         xlink:href="#glyph1-5"
         x="179.0282"
         y="274.311"
         id="use833" />
    </g>
    <path
       style="fill:none;stroke-width:0.4782;stroke-linecap:butt;stroke-linejoin:round;stroke:#0080ff;stroke-opacity:1;stroke-miterlimit:10"
       d="M -8.80485 -88.69515 L -4.695475 -88.69515 "
       transform="matrix(1,0,0,-1,187.3361,187.3361)"
       id="path837" />
    <g
       style="fill:#0080ff;fill-opacity:1"
       id="g841">
      <use
         xlink:href="#glyph1-2"
         x="178.5322"
         y="283.1407"
         id="use839" />
    </g>
  </g>
</svg>
